﻿Log file open, 09/10/20 19:11:46
LogInit: Display: Running engine for game: FIT2097Assignment1
LogPlatformFile: Not using cached read wrapper
LogTaskGraph: Started task graph with 5 named threads and 35 total threads with 3 sets of task threads.
LogStats: Stats thread started at 0.206649
LogD3D11RHI: Loaded GFSDK_Aftermath_Lib.x64.dll
LogICUInternationalization: ICU TimeZone Detection - Raw Offset: +10:00, Platform Override: ''
LogPluginManager: Mounting plugin Paper2D
LogPluginManager: Mounting plugin AISupport
LogPluginManager: Mounting plugin LightPropagationVolume
LogPluginManager: Mounting plugin CameraShakePreviewer
LogPluginManager: Mounting plugin ActorLayerUtilities
LogPluginManager: Mounting plugin AnimationSharing
LogPluginManager: Mounting plugin CLionSourceCodeAccess
LogPluginManager: Mounting plugin CodeLiteSourceCodeAccess
LogPluginManager: Mounting plugin GitSourceControl
LogPluginManager: Mounting plugin KDevelopSourceCodeAccess
LogPluginManager: Mounting plugin NullSourceCodeAccess
LogPluginManager: Mounting plugin PerforceSourceControl
LogPluginManager: Mounting plugin PlasticSourceControl
LogPluginManager: Mounting plugin RiderSourceCodeAccess
LogPluginManager: Mounting plugin SubversionSourceControl
LogPluginManager: Mounting plugin UObjectPlugin
LogPluginManager: Mounting plugin VisualStudioCodeSourceCodeAccess
LogPluginManager: Mounting plugin VisualStudioSourceCodeAccess
LogPluginManager: Mounting plugin XCodeSourceCodeAccess
LogPluginManager: Mounting plugin AssetManagerEditor
LogPluginManager: Mounting plugin CryptoKeys
LogPluginManager: Mounting plugin CurveEditorTools
LogPluginManager: Mounting plugin DataValidation
LogPluginManager: Mounting plugin EditorScriptingUtilities
LogPluginManager: Mounting plugin FacialAnimation
LogPluginManager: Mounting plugin GameplayTagsEditor
LogPluginManager: Mounting plugin GeometryMode
LogPluginManager: Mounting plugin MacGraphicsSwitching
LogPluginManager: Mounting plugin MaterialAnalyzer
LogPluginManager: Mounting plugin MobileLauncherProfileWizard
LogPluginManager: Mounting plugin PluginBrowser
LogPluginManager: Mounting plugin SpeedTreeImporter
LogPluginManager: Mounting plugin DatasmithContent
LogPluginManager: Mounting plugin VariantManagerContent
LogPluginManager: Mounting plugin AlembicImporter
LogPluginManager: Mounting plugin AutomationUtils
LogPluginManager: Mounting plugin BackChannel
LogPluginManager: Mounting plugin ChaosCloth
LogPluginManager: Mounting plugin ChaosClothEditor
LogPluginManager: Mounting plugin ChaosEditor
LogPluginManager: Mounting plugin ChaosNiagara
LogPluginManager: Mounting plugin ChaosSolverPlugin
LogPluginManager: Mounting plugin CharacterAI
LogPluginManager: Mounting plugin GeometryCache
LogPluginManager: Mounting plugin GeometryCollectionPlugin
LogPluginManager: Mounting plugin GeometryProcessing
LogPluginManager: Mounting plugin PlanarCut
LogPluginManager: Mounting plugin PlatformCrypto
LogPluginManager: Mounting plugin ProxyLODPlugin
LogPluginManager: Mounting plugin SkeletalReduction
LogPluginManager: Mounting plugin Niagara
LogPluginManager: Mounting plugin MagicLeap
LogPluginManager: Mounting plugin MagicLeapLightEstimation
LogPluginManager: Mounting plugin MagicLeapMedia
LogPluginManager: Mounting plugin MagicLeapPassableWorld
LogPluginManager: Mounting plugin MLSDK
LogPluginManager: Mounting plugin AndroidMedia
LogPluginManager: Mounting plugin AvfMedia
LogPluginManager: Mounting plugin ImgMedia
LogPluginManager: Mounting plugin MediaCompositing
LogPluginManager: Mounting plugin MediaPlayerEditor
LogPluginManager: Mounting plugin WebMMedia
LogPluginManager: Mounting plugin WmfMedia
LogPluginManager: Mounting plugin MeshPainting
LogPluginManager: Mounting plugin TcpMessaging
LogPluginManager: Mounting plugin UdpMessaging
LogPluginManager: Mounting plugin ActorSequence
LogPluginManager: Mounting plugin LevelSequenceEditor
LogPluginManager: Mounting plugin MatineeToLevelSequence
LogPluginManager: Mounting plugin MovieRenderPipeline
LogPluginManager: Mounting plugin TemplateSequence
LogPluginManager: Mounting plugin NetcodeUnitTest
LogPluginManager: Mounting plugin NUTUnrealEngine4
LogPluginManager: Mounting plugin OnlineSubsystemGooglePlay
LogPluginManager: Mounting plugin OnlineSubsystemIOS
LogPluginManager: Mounting plugin OnlineSubsystem
LogPluginManager: Mounting plugin OnlineSubsystemNull
LogPluginManager: Mounting plugin OnlineSubsystemUtils
LogPluginManager: Mounting plugin LauncherChunkInstaller
LogPluginManager: Mounting plugin AndroidDeviceProfileSelector
LogPluginManager: Mounting plugin AndroidMoviePlayer
LogPluginManager: Mounting plugin AndroidPermission
LogPluginManager: Mounting plugin AppleImageUtils
LogPluginManager: Mounting plugin AppleMoviePlayer
LogPluginManager: Mounting plugin ArchVisCharacter
LogPluginManager: Mounting plugin AssetTags
LogPluginManager: Mounting plugin AudioCapture
LogPluginManager: Mounting plugin CableComponent
LogPluginManager: Mounting plugin CustomMeshComponent
LogPluginManager: Mounting plugin EditableMesh
LogPluginManager: Mounting plugin ExampleDeviceProfileSelector
LogPluginManager: Mounting plugin GoogleCloudMessaging
LogPluginManager: Mounting plugin GooglePAD
LogPluginManager: Mounting plugin IOSDeviceProfileSelector
LogPluginManager: Mounting plugin LinuxDeviceProfileSelector
LogPluginManager: Mounting plugin LocationServicesBPLibrary
LogPluginManager: Mounting plugin MobilePatchingUtils
LogPluginManager: Mounting plugin OculusVR
LogPluginManager: Mounting plugin PhysXVehicles
LogPluginManager: Mounting plugin PostSplashScreen
LogPluginManager: Mounting plugin ProceduralMeshComponent
LogPluginManager: Mounting plugin RuntimePhysXCooking
LogPluginManager: Mounting plugin SignificanceManager
LogPluginManager: Mounting plugin SoundFields
LogPluginManager: Mounting plugin SteamVR
LogPluginManager: Mounting plugin Synthesis
LogPluginManager: Mounting plugin WebMMoviePlayer
LogPluginManager: Mounting plugin WindowsMoviePlayer
LogPluginManager: Mounting plugin ScreenshotTools
LogInit: Using libcurl 7.55.1-DEV
LogInit:  - built for x86_64-pc-win32
LogInit:  - supports SSL with OpenSSL/1.1.1
LogInit:  - supports HTTP deflate (compression) using libz 1.2.8
LogInit:  - other features:
LogInit:      CURL_VERSION_SSL
LogInit:      CURL_VERSION_LIBZ
LogInit:      CURL_VERSION_IPV6
LogInit:      CURL_VERSION_ASYNCHDNS
LogInit:      CURL_VERSION_LARGEFILE
LogInit:      CURL_VERSION_IDN
LogInit:  CurlRequestOptions (configurable via config and command line):
LogInit:  - bVerifyPeer = true  - Libcurl will verify peer certificate
LogInit:  - bUseHttpProxy = false  - Libcurl will NOT use HTTP proxy
LogInit:  - bDontReuseConnections = false  - Libcurl will reuse connections
LogInit:  - MaxHostConnections = 16  - Libcurl will limit the number of connections to a host
LogInit:  - LocalHostAddr = Default
LogInit:  - BufferSize = 65536
LogOnline: OSS: Creating online subsystem instance for: NULL
LogInit: WinSock: version 1.1 (2.2), MaxSocks=32767, MaxUdp=65467
LogOnline: OSS: TryLoadSubsystemAndSetDefault: Loaded subsystem for module [NULL]
LogInit: Build: ++UE4+Release-4.25-CL-13942748
LogInit: Engine Version: 4.25.3-13942748+++UE4+Release-4.25
LogInit: Compatible Engine Version: 4.25.0-13144385+++UE4+Release-4.25
LogInit: Net CL: 13144385
LogInit: OS: Windows 10 (Release 1903) (), CPU: Intel(R) Core(TM) i7-8750H CPU @ 2.20GHz, GPU: NVIDIA GeForce GTX 1080
LogInit: Compiled (64-bit): Jul 25 2020 02:07:48
LogInit: Compiled with Visual C++: 19.24.28315.00
LogInit: Build Configuration: Development
LogInit: Branch Name: ++UE4+Release-4.25
LogInit: Command Line: 
LogInit: Base Directory: D:/UE_4.25/Engine/Binaries/Win64/
LogInit: Allocator: TBB
LogInit: Installed Engine Build: 1
LogDevObjectVersion: Number of dev versions registered: 26
LogDevObjectVersion:   Dev-Blueprints (B0D832E4-1F89-4F0D-ACCF-7EB736FD4AA2): 10
LogDevObjectVersion:   Dev-Build (E1C64328-A22C-4D53-A36C-8E866417BD8C): 0
LogDevObjectVersion:   Dev-Core (375EC13C-06E4-48FB-B500-84F0262A717E): 4
LogDevObjectVersion:   Dev-Editor (E4B068ED-F494-42E9-A231-DA0B2E46BB41): 38
LogDevObjectVersion:   Dev-Framework (CFFC743F-43B0-4480-9391-14DF171D2073): 37
LogDevObjectVersion:   Dev-Mobile (B02B49B5-BB20-44E9-A304-32B752E40360): 2
LogDevObjectVersion:   Dev-Networking (A4E4105C-59A1-49B5-A7C5-40C4547EDFEE): 0
LogDevObjectVersion:   Dev-Online (39C831C9-5AE6-47DC-9A44-9C173E1C8E7C): 0
LogDevObjectVersion:   Dev-Physics (78F01B33-EBEA-4F98-B9B4-84EACCB95AA2): 4
LogDevObjectVersion:   Dev-Platform (6631380F-2D4D-43E0-8009-CF276956A95A): 0
LogDevObjectVersion:   Dev-Rendering (12F88B9F-8875-4AFC-A67C-D90C383ABD29): 43
LogDevObjectVersion:   Dev-Sequencer (7B5AE74C-D270-4C10-A958-57980B212A5A): 12
LogDevObjectVersion:   Dev-VR (D7296918-1DD6-4BDD-9DE2-64A83CC13884): 3
LogDevObjectVersion:   Dev-LoadTimes (C2A15278-BFE7-4AFE-6C17-90FF531DF755): 1
LogDevObjectVersion:   Private-Geometry (6EACA3D4-40EC-4CC1-B786-8BED09428FC5): 3
LogDevObjectVersion:   Dev-AnimPhys (29E575DD-E0A3-4627-9D10-D276232CDCEA): 17
LogDevObjectVersion:   Dev-Anim (AF43A65D-7FD3-4947-9873-3E8ED9C1BB05): 7
LogDevObjectVersion:   Dev-ReflectionCapture (6B266CEC-1EC7-4B8F-A30B-E4D90942FC07): 1
LogDevObjectVersion:   Dev-Automation (0DF73D61-A23F-47EA-B727-89E90C41499A): 1
LogDevObjectVersion:   FortniteMain (601D1886-AC64-4F84-AA16-D3DE0DEAC7D6): 31
LogDevObjectVersion:   Dev-Enterprise (9DFFBCD6-494F-0158-E221-12823C92A888): 10
LogDevObjectVersion:   Dev-Niagara (F2AED0AC-9AFE-416F-8664-AA7FFA26D6FC): 1
LogDevObjectVersion:   Dev-Destruction (174F1F0B-B4C6-45A5-B13F-2EE8D0FB917D): 10
LogDevObjectVersion:   Dev-Physics-Ext (35F94A83-E258-406C-A318-09F59610247C): 37
LogDevObjectVersion:   Dev-PhysicsMaterial-Chaos (B68FC16E-8B1B-42E2-B453-215C058844FE): 1
LogDevObjectVersion:   Dev-CineCamera (B2E18506-4273-CFC2-A54E-F4BB758BBA07): 1
LogInit: Presizing for max 25165824 objects, including 0 objects not considered by GC, pre-allocating 0 bytes for permanent pool.
LogConfig: Applying CVar settings from Section [/Script/Engine.StreamingSettings] File [C:/Users/ROG/Documents/Unreal Projects/FIT2097Assignment1/Saved/Config/Windows/Engine.ini]
LogConfig: Setting CVar [[s.MinBulkDataSizeForAsyncLoading:131072]]
LogConfig: Setting CVar [[s.AsyncLoadingThreadEnabled:0]]
LogConfig: Setting CVar [[s.EventDrivenLoaderEnabled:1]]
LogConfig: Setting CVar [[s.WarnIfTimeLimitExceeded:0]]
LogConfig: Setting CVar [[s.TimeLimitExceededMultiplier:1.5]]
LogConfig: Setting CVar [[s.TimeLimitExceededMinTime:0.005]]
LogConfig: Setting CVar [[s.UseBackgroundLevelStreaming:1]]
LogConfig: Setting CVar [[s.PriorityAsyncLoadingExtraTime:15.0]]
LogConfig: Setting CVar [[s.LevelStreamingActorsUpdateTimeLimit:5.0]]
LogConfig: Setting CVar [[s.PriorityLevelStreamingActorsUpdateExtraTime:5.0]]
LogConfig: Setting CVar [[s.LevelStreamingComponentsRegistrationGranularity:10]]
LogConfig: Setting CVar [[s.UnregisterComponentsTimeLimit:1.0]]
LogConfig: Setting CVar [[s.LevelStreamingComponentsUnregistrationGranularity:5]]
LogConfig: Setting CVar [[s.FlushStreamingOnExit:1]]
LogInit: Object subsystem initialized
LogConfig: Setting CVar [[con.DebugEarlyDefault:1]]
LogConfig: Setting CVar [[r.setres:1280x720]]
[2020.09.10-09.11.47:109][  0]LogConfig: Setting CVar [[r.VSync:0]]
[2020.09.10-09.11.47:109][  0]LogConfig: Setting CVar [[r.RHICmdBypass:0]]
[2020.09.10-09.11.47:109][  0]LogConfig: Applying CVar settings from Section [/Script/Engine.RendererSettings] File [C:/Users/ROG/Documents/Unreal Projects/FIT2097Assignment1/Saved/Config/Windows/Engine.ini]
[2020.09.10-09.11.47:109][  0]LogConfig: Setting CVar [[r.GPUCrashDebugging:0]]
[2020.09.10-09.11.47:109][  0]LogConfig: Applying CVar settings from Section [/Script/Engine.RendererOverrideSettings] File [C:/Users/ROG/Documents/Unreal Projects/FIT2097Assignment1/Saved/Config/Windows/Engine.ini]
[2020.09.10-09.11.47:109][  0]LogConfig: Applying CVar settings from Section [/Script/Engine.StreamingSettings] File [C:/Users/ROG/Documents/Unreal Projects/FIT2097Assignment1/Saved/Config/Windows/Engine.ini]
[2020.09.10-09.11.47:109][  0]LogConfig: Setting CVar [[s.MinBulkDataSizeForAsyncLoading:131072]]
[2020.09.10-09.11.47:109][  0]LogConfig: Setting CVar [[s.AsyncLoadingThreadEnabled:0]]
[2020.09.10-09.11.47:109][  0]LogConfig: Setting CVar [[s.EventDrivenLoaderEnabled:1]]
[2020.09.10-09.11.47:109][  0]LogConfig: Setting CVar [[s.WarnIfTimeLimitExceeded:0]]
[2020.09.10-09.11.47:109][  0]LogConfig: Setting CVar [[s.TimeLimitExceededMultiplier:1.5]]
[2020.09.10-09.11.47:109][  0]LogConfig: Setting CVar [[s.TimeLimitExceededMinTime:0.005]]
[2020.09.10-09.11.47:109][  0]LogConfig: Setting CVar [[s.UseBackgroundLevelStreaming:1]]
[2020.09.10-09.11.47:109][  0]LogConfig: Setting CVar [[s.PriorityAsyncLoadingExtraTime:15.0]]
[2020.09.10-09.11.47:109][  0]LogConfig: Setting CVar [[s.LevelStreamingActorsUpdateTimeLimit:5.0]]
[2020.09.10-09.11.47:109][  0]LogConfig: Setting CVar [[s.PriorityLevelStreamingActorsUpdateExtraTime:5.0]]
[2020.09.10-09.11.47:109][  0]LogConfig: Setting CVar [[s.LevelStreamingComponentsRegistrationGranularity:10]]
[2020.09.10-09.11.47:109][  0]LogConfig: Setting CVar [[s.UnregisterComponentsTimeLimit:1.0]]
[2020.09.10-09.11.47:109][  0]LogConfig: Setting CVar [[s.LevelStreamingComponentsUnregistrationGranularity:5]]
[2020.09.10-09.11.47:109][  0]LogConfig: Setting CVar [[s.FlushStreamingOnExit:1]]
[2020.09.10-09.11.47:109][  0]LogConfig: Applying CVar settings from Section [/Script/Engine.GarbageCollectionSettings] File [C:/Users/ROG/Documents/Unreal Projects/FIT2097Assignment1/Saved/Config/Windows/Engine.ini]
[2020.09.10-09.11.47:109][  0]LogConfig: Setting CVar [[gc.MaxObjectsNotConsideredByGC:1]]
[2020.09.10-09.11.47:109][  0]LogConfig: Setting CVar [[gc.SizeOfPermanentObjectPool:0]]
[2020.09.10-09.11.47:109][  0]LogConfig: Setting CVar [[gc.FlushStreamingOnGC:0]]
[2020.09.10-09.11.47:109][  0]LogConfig: Setting CVar [[gc.NumRetriesBeforeForcingGC:10]]
[2020.09.10-09.11.47:109][  0]LogConfig: Setting CVar [[gc.AllowParallelGC:1]]
[2020.09.10-09.11.47:109][  0]LogConfig: Setting CVar [[gc.TimeBetweenPurgingPendingKillObjects:61.1]]
[2020.09.10-09.11.47:109][  0]LogConfig: Setting CVar [[gc.MaxObjectsInEditor:25165824]]
[2020.09.10-09.11.47:109][  0]LogConfig: Setting CVar [[gc.IncrementalBeginDestroyEnabled:1]]
[2020.09.10-09.11.47:109][  0]LogConfig: Setting CVar [[gc.CreateGCClusters:1]]
[2020.09.10-09.11.47:109][  0]LogConfig: Setting CVar [[gc.MinGCClusterSize:5]]
[2020.09.10-09.11.47:109][  0]LogConfig: Setting CVar [[gc.ActorClusteringEnabled:0]]
[2020.09.10-09.11.47:109][  0]LogConfig: Setting CVar [[gc.BlueprintClusteringEnabled:0]]
[2020.09.10-09.11.47:109][  0]LogConfig: Setting CVar [[gc.UseDisregardForGCOnDedicatedServers:0]]
[2020.09.10-09.11.47:109][  0]LogConfig: Applying CVar settings from Section [/Script/Engine.NetworkSettings] File [C:/Users/ROG/Documents/Unreal Projects/FIT2097Assignment1/Saved/Config/Windows/Engine.ini]
[2020.09.10-09.11.47:109][  0]LogConfig: Applying CVar settings from Section [/Script/UnrealEd.CookerSettings] File [C:/Users/ROG/Documents/Unreal Projects/FIT2097Assignment1/Saved/Config/Windows/Engine.ini]
[2020.09.10-09.11.47:114][  0]LogConfig: Applying CVar settings from Section [ViewDistanceQuality@3] File [C:/Users/ROG/Documents/Unreal Projects/FIT2097Assignment1/Saved/Config/Windows/Scalability.ini]
[2020.09.10-09.11.47:114][  0]LogConfig: Setting CVar [[r.SkeletalMeshLODBias:0]]
[2020.09.10-09.11.47:114][  0]LogConfig: Setting CVar [[r.ViewDistanceScale:1.0]]
[2020.09.10-09.11.47:114][  0]LogConfig: Applying CVar settings from Section [AntiAliasingQuality@3] File [C:/Users/ROG/Documents/Unreal Projects/FIT2097Assignment1/Saved/Config/Windows/Scalability.ini]
[2020.09.10-09.11.47:114][  0]LogConfig: Setting CVar [[r.PostProcessAAQuality:4]]
[2020.09.10-09.11.47:114][  0]LogConfig: Applying CVar settings from Section [ShadowQuality@3] File [C:/Users/ROG/Documents/Unreal Projects/FIT2097Assignment1/Saved/Config/Windows/Scalability.ini]
[2020.09.10-09.11.47:114][  0]LogConfig: Setting CVar [[r.LightFunctionQuality:1]]
[2020.09.10-09.11.47:114][  0]LogConfig: Setting CVar [[r.ShadowQuality:5]]
[2020.09.10-09.11.47:114][  0]LogConfig: Setting CVar [[r.Shadow.CSM.MaxCascades:10]]
[2020.09.10-09.11.47:114][  0]LogConfig: Setting CVar [[r.Shadow.MaxResolution:2048]]
[2020.09.10-09.11.47:114][  0]LogConfig: Setting CVar [[r.Shadow.MaxCSMResolution:2048]]
[2020.09.10-09.11.47:114][  0]LogConfig: Setting CVar [[r.Shadow.RadiusThreshold:0.01]]
[2020.09.10-09.11.47:114][  0]LogConfig: Setting CVar [[r.Shadow.DistanceScale:1.0]]
[2020.09.10-09.11.47:114][  0]LogConfig: Setting CVar [[r.Shadow.CSM.TransitionScale:1.0]]
[2020.09.10-09.11.47:114][  0]LogConfig: Setting CVar [[r.Shadow.PreShadowResolutionFactor:1.0]]
[2020.09.10-09.11.47:114][  0]LogConfig: Setting CVar [[r.DistanceFieldShadowing:1]]
[2020.09.10-09.11.47:114][  0]LogConfig: Setting CVar [[r.DistanceFieldAO:1]]
[2020.09.10-09.11.47:114][  0]LogConfig: Setting CVar [[r.AOQuality:2]]
[2020.09.10-09.11.47:114][  0]LogConfig: Setting CVar [[r.VolumetricFog:1]]
[2020.09.10-09.11.47:114][  0]LogConfig: Setting CVar [[r.VolumetricFog.GridPixelSize:8]]
[2020.09.10-09.11.47:114][  0]LogConfig: Setting CVar [[r.VolumetricFog.GridSizeZ:128]]
[2020.09.10-09.11.47:114][  0]LogConfig: Setting CVar [[r.VolumetricFog.HistoryMissSupersampleCount:4]]
[2020.09.10-09.11.47:114][  0]LogConfig: Setting CVar [[r.LightMaxDrawDistanceScale:1]]
[2020.09.10-09.11.47:114][  0]LogConfig: Setting CVar [[r.CapsuleShadows:1]]
[2020.09.10-09.11.47:114][  0]LogConfig: Applying CVar settings from Section [PostProcessQuality@3] File [C:/Users/ROG/Documents/Unreal Projects/FIT2097Assignment1/Saved/Config/Windows/Scalability.ini]
[2020.09.10-09.11.47:114][  0]LogConfig: Setting CVar [[r.MotionBlurQuality:4]]
[2020.09.10-09.11.47:114][  0]LogConfig: Setting CVar [[r.AmbientOcclusionMipLevelFactor:0.4]]
[2020.09.10-09.11.47:114][  0]LogConfig: Setting CVar [[r.AmbientOcclusionMaxQuality:100]]
[2020.09.10-09.11.47:115][  0]LogConfig: Setting CVar [[r.AmbientOcclusionLevels:-1]]
[2020.09.10-09.11.47:115][  0]LogConfig: Setting CVar [[r.AmbientOcclusionRadiusScale:1.0]]
[2020.09.10-09.11.47:115][  0]LogConfig: Setting CVar [[r.DepthOfFieldQuality:2]]
[2020.09.10-09.11.47:115][  0]LogConfig: Setting CVar [[r.RenderTargetPoolMin:400]]
[2020.09.10-09.11.47:115][  0]LogConfig: Setting CVar [[r.LensFlareQuality:2]]
[2020.09.10-09.11.47:115][  0]LogConfig: Setting CVar [[r.SceneColorFringeQuality:1]]
[2020.09.10-09.11.47:115][  0]LogConfig: Setting CVar [[r.EyeAdaptationQuality:2]]
[2020.09.10-09.11.47:115][  0]LogConfig: Setting CVar [[r.BloomQuality:5]]
[2020.09.10-09.11.47:115][  0]LogConfig: Setting CVar [[r.FastBlurThreshold:100]]
[2020.09.10-09.11.47:115][  0]LogConfig: Setting CVar [[r.Upscale.Quality:3]]
[2020.09.10-09.11.47:115][  0]LogConfig: Setting CVar [[r.Tonemapper.GrainQuantization:1]]
[2020.09.10-09.11.47:115][  0]LogConfig: Setting CVar [[r.LightShaftQuality:1]]
[2020.09.10-09.11.47:115][  0]LogConfig: Setting CVar [[r.Filter.SizeScale:1]]
[2020.09.10-09.11.47:115][  0]LogConfig: Setting CVar [[r.Tonemapper.Quality:5]]
[2020.09.10-09.11.47:115][  0]LogConfig: Setting CVar [[r.DOF.Gather.AccumulatorQuality:1        ; higher gathering accumulator quality]]
[2020.09.10-09.11.47:115][  0]LogConfig: Setting CVar [[r.DOF.Gather.PostfilterMethod:1          ; Median3x3 postfilering method]]
[2020.09.10-09.11.47:115][  0]LogConfig: Setting CVar [[r.DOF.Gather.EnableBokehSettings:0       ; no bokeh simulation when gathering]]
[2020.09.10-09.11.47:115][  0]LogConfig: Setting CVar [[r.DOF.Gather.RingCount:4                 ; medium number of samples when gathering]]
[2020.09.10-09.11.47:115][  0]LogConfig: Setting CVar [[r.DOF.Scatter.ForegroundCompositing:1    ; additive foreground scattering]]
[2020.09.10-09.11.47:115][  0]LogConfig: Setting CVar [[r.DOF.Scatter.BackgroundCompositing:2    ; additive background scattering]]
[2020.09.10-09.11.47:115][  0]LogConfig: Setting CVar [[r.DOF.Scatter.EnableBokehSettings:1      ; bokeh simulation when scattering]]
[2020.09.10-09.11.47:115][  0]LogConfig: Setting CVar [[r.DOF.Scatter.MaxSpriteRatio:0.1         ; only a maximum of 10% of scattered bokeh]]
[2020.09.10-09.11.47:115][  0]LogConfig: Setting CVar [[r.DOF.Recombine.Quality:1                ; cheap slight out of focus]]
[2020.09.10-09.11.47:115][  0]LogConfig: Setting CVar [[r.DOF.Recombine.EnableBokehSettings:0    ; no bokeh simulation on slight out of focus]]
[2020.09.10-09.11.47:115][  0]LogConfig: Setting CVar [[r.DOF.TemporalAAQuality:1                ; more stable temporal accumulation]]
[2020.09.10-09.11.47:115][  0]LogConfig: Setting CVar [[r.DOF.Kernel.MaxForegroundRadius:0.025]]
[2020.09.10-09.11.47:115][  0]LogConfig: Setting CVar [[r.DOF.Kernel.MaxBackgroundRadius:0.025]]
[2020.09.10-09.11.47:115][  0]LogConfig: Applying CVar settings from Section [TextureQuality@3] File [C:/Users/ROG/Documents/Unreal Projects/FIT2097Assignment1/Saved/Config/Windows/Scalability.ini]
[2020.09.10-09.11.47:115][  0]LogConfig: Setting CVar [[r.Streaming.MipBias:0]]
[2020.09.10-09.11.47:115][  0]LogConfig: Setting CVar [[r.Streaming.AmortizeCPUToGPUCopy:0]]
[2020.09.10-09.11.47:115][  0]LogConfig: Setting CVar [[r.Streaming.MaxNumTexturesToStreamPerFrame:0]]
[2020.09.10-09.11.47:115][  0]LogConfig: Setting CVar [[r.Streaming.Boost:1]]
[2020.09.10-09.11.47:115][  0]LogConfig: Setting CVar [[r.MaxAnisotropy:8]]
[2020.09.10-09.11.47:115][  0]LogConfig: Setting CVar [[r.VT.MaxAnisotropy:8]]
[2020.09.10-09.11.47:115][  0]LogConfig: Setting CVar [[r.Streaming.LimitPoolSizeToVRAM:0]]
[2020.09.10-09.11.47:115][  0]LogConfig: Setting CVar [[r.Streaming.PoolSize:1000]]
[2020.09.10-09.11.47:115][  0]LogConfig: Setting CVar [[r.Streaming.MaxEffectiveScreenSize:0]]
[2020.09.10-09.11.47:115][  0]LogConfig: Applying CVar settings from Section [EffectsQuality@3] File [C:/Users/ROG/Documents/Unreal Projects/FIT2097Assignment1/Saved/Config/Windows/Scalability.ini]
[2020.09.10-09.11.47:115][  0]LogConfig: Setting CVar [[r.TranslucencyLightingVolumeDim:64]]
[2020.09.10-09.11.47:115][  0]LogConfig: Setting CVar [[r.RefractionQuality:2]]
[2020.09.10-09.11.47:115][  0]LogConfig: Setting CVar [[r.SSR.Quality:3]]
[2020.09.10-09.11.47:115][  0]LogConfig: Setting CVar [[r.SSR.HalfResSceneColor:0]]
[2020.09.10-09.11.47:115][  0]LogConfig: Setting CVar [[r.SceneColorFormat:4]]
[2020.09.10-09.11.47:115][  0]LogConfig: Setting CVar [[r.DetailMode:2]]
[2020.09.10-09.11.47:115][  0]LogConfig: Setting CVar [[r.TranslucencyVolumeBlur:1]]
[2020.09.10-09.11.47:115][  0]LogConfig: Setting CVar [[r.MaterialQualityLevel:1 ; High quality]]
[2020.09.10-09.11.47:115][  0]LogConfig: Setting CVar [[r.SSS.Scale:1]]
[2020.09.10-09.11.47:115][  0]LogConfig: Setting CVar [[r.SSS.SampleSet:2]]
[2020.09.10-09.11.47:115][  0]LogConfig: Setting CVar [[r.SSS.Quality:1]]
[2020.09.10-09.11.47:115][  0]LogConfig: Setting CVar [[r.SSS.HalfRes:0]]
[2020.09.10-09.11.47:115][  0]LogConfig: Setting CVar [[r.SSGI.Quality:3]]
[2020.09.10-09.11.47:115][  0]LogConfig: Setting CVar [[r.EmitterSpawnRateScale:1.0]]
[2020.09.10-09.11.47:115][  0]LogConfig: Setting CVar [[r.ParticleLightQuality:2]]
[2020.09.10-09.11.47:115][  0]LogConfig: Setting CVar [[r.SkyAtmosphere.AerialPerspectiveLUT.FastApplyOnOpaque:1 ; Always have FastSkyLUT 1 in this case to avoid wrong sky]]
[2020.09.10-09.11.47:115][  0]LogConfig: Setting CVar [[r.SkyAtmosphere.AerialPerspectiveLUT.SampleCountPerSlice:1]]
[2020.09.10-09.11.47:115][  0]LogConfig: Setting CVar [[r.SkyAtmosphere.AerialPerspectiveLUT.DepthResolution:16.0]]
[2020.09.10-09.11.47:115][  0]LogConfig: Setting CVar [[r.SkyAtmosphere.FastSkyLUT:1]]
[2020.09.10-09.11.47:115][  0]LogConfig: Setting CVar [[r.SkyAtmosphere.FastSkyLUT.SampleCountMin:4.0]]
[2020.09.10-09.11.47:115][  0]LogConfig: Setting CVar [[r.SkyAtmosphere.FastSkyLUT.SampleCountMax:32.0]]
[2020.09.10-09.11.47:115][  0]LogConfig: Setting CVar [[r.SkyAtmosphere.SampleCountMin:4.0]]
[2020.09.10-09.11.47:115][  0]LogConfig: Setting CVar [[r.SkyAtmosphere.SampleCountMax:32.0]]
[2020.09.10-09.11.47:115][  0]LogConfig: Setting CVar [[r.SkyAtmosphere.TransmittanceLUT.UseSmallFormat:0]]
[2020.09.10-09.11.47:115][  0]LogConfig: Setting CVar [[r.SkyAtmosphere.TransmittanceLUT.SampleCount:10.0]]
[2020.09.10-09.11.47:115][  0]LogConfig: Setting CVar [[r.SkyAtmosphere.MultiScatteringLUT.SampleCount:15.0]]
[2020.09.10-09.11.47:115][  0]LogConfig: Applying CVar settings from Section [FoliageQuality@3] File [C:/Users/ROG/Documents/Unreal Projects/FIT2097Assignment1/Saved/Config/Windows/Scalability.ini]
[2020.09.10-09.11.47:115][  0]LogConfig: Setting CVar [[foliage.DensityScale:1.0]]
[2020.09.10-09.11.47:115][  0]LogConfig: Setting CVar [[grass.DensityScale:1.0]]
[2020.09.10-09.11.47:115][  0]LogConfig: Applying CVar settings from Section [ShadingQuality@3] File [C:/Users/ROG/Documents/Unreal Projects/FIT2097Assignment1/Saved/Config/Windows/Scalability.ini]
[2020.09.10-09.11.47:115][  0]LogConfig: Setting CVar [[r.HairStrands.SkyLighting.SampleCount:16]]
[2020.09.10-09.11.47:115][  0]LogConfig: Setting CVar [[r.HairStrands.SkyLighting.JitterIntegration:0]]
[2020.09.10-09.11.47:115][  0]LogConfig: Setting CVar [[r.HairStrands.SkyAO.SampleCount:16]]
[2020.09.10-09.11.47:115][  0]LogConfig: Setting CVar [[r.HairStrands.DeepShadow.SuperSampling:0]]
[2020.09.10-09.11.47:115][  0]LogConfig: Setting CVar [[r.HairStrands.VisibilityPPLL:0]]
[2020.09.10-09.11.47:115][  0]LogConfig: Setting CVar [[r.HairStrands.RasterizationScale:0.5]]
[2020.09.10-09.11.47:115][  0]LogConfig: Setting CVar [[r.HairStrands.VelocityRasterizationScale:1]]
[2020.09.10-09.11.47:115][  0]LogInit: Selected Device Profile: [Windows]
[2020.09.10-09.11.47:115][  0]LogInit: Applying CVar settings loaded from the selected device profile: [Windows]
[2020.09.10-09.11.47:115][  0]LogHAL: Display: Platform has ~ 32 GB [34278486016 / 34359738368 / 32], which maps to Largest [LargestMinGB=32, LargerMinGB=12, DefaultMinGB=8, SmallerMinGB=6, SmallestMinGB=0)
[2020.09.10-09.11.47:115][  0]LogInit: Going up to parent DeviceProfile []
[2020.09.10-09.11.47:115][  0]LogConfig: Applying CVar settings from Section [ViewDistanceQuality@3] File [C:/Users/ROG/Documents/Unreal Projects/FIT2097Assignment1/Saved/Config/Windows/Scalability.ini]
[2020.09.10-09.11.47:115][  0]LogConfig: Setting CVar [[r.SkeletalMeshLODBias:0]]
[2020.09.10-09.11.47:115][  0]LogConfig: Setting CVar [[r.ViewDistanceScale:1.0]]
[2020.09.10-09.11.47:115][  0]LogConfig: Applying CVar settings from Section [AntiAliasingQuality@3] File [C:/Users/ROG/Documents/Unreal Projects/FIT2097Assignment1/Saved/Config/Windows/Scalability.ini]
[2020.09.10-09.11.47:115][  0]LogConfig: Setting CVar [[r.PostProcessAAQuality:4]]
[2020.09.10-09.11.47:115][  0]LogConfig: Applying CVar settings from Section [ShadowQuality@3] File [C:/Users/ROG/Documents/Unreal Projects/FIT2097Assignment1/Saved/Config/Windows/Scalability.ini]
[2020.09.10-09.11.47:115][  0]LogConfig: Setting CVar [[r.LightFunctionQuality:1]]
[2020.09.10-09.11.47:115][  0]LogConfig: Setting CVar [[r.ShadowQuality:5]]
[2020.09.10-09.11.47:115][  0]LogConfig: Setting CVar [[r.Shadow.CSM.MaxCascades:10]]
[2020.09.10-09.11.47:115][  0]LogConfig: Setting CVar [[r.Shadow.MaxResolution:2048]]
[2020.09.10-09.11.47:115][  0]LogConfig: Setting CVar [[r.Shadow.MaxCSMResolution:2048]]
[2020.09.10-09.11.47:115][  0]LogConfig: Setting CVar [[r.Shadow.RadiusThreshold:0.01]]
[2020.09.10-09.11.47:115][  0]LogConfig: Setting CVar [[r.Shadow.DistanceScale:1.0]]
[2020.09.10-09.11.47:115][  0]LogConfig: Setting CVar [[r.Shadow.CSM.TransitionScale:1.0]]
[2020.09.10-09.11.47:115][  0]LogConfig: Setting CVar [[r.Shadow.PreShadowResolutionFactor:1.0]]
[2020.09.10-09.11.47:115][  0]LogConfig: Setting CVar [[r.DistanceFieldShadowing:1]]
[2020.09.10-09.11.47:115][  0]LogConfig: Setting CVar [[r.DistanceFieldAO:1]]
[2020.09.10-09.11.47:116][  0]LogConfig: Setting CVar [[r.AOQuality:2]]
[2020.09.10-09.11.47:116][  0]LogConfig: Setting CVar [[r.VolumetricFog:1]]
[2020.09.10-09.11.47:116][  0]LogConfig: Setting CVar [[r.VolumetricFog.GridPixelSize:8]]
[2020.09.10-09.11.47:116][  0]LogConfig: Setting CVar [[r.VolumetricFog.GridSizeZ:128]]
[2020.09.10-09.11.47:116][  0]LogConfig: Setting CVar [[r.VolumetricFog.HistoryMissSupersampleCount:4]]
[2020.09.10-09.11.47:116][  0]LogConfig: Setting CVar [[r.LightMaxDrawDistanceScale:1]]
[2020.09.10-09.11.47:116][  0]LogConfig: Setting CVar [[r.CapsuleShadows:1]]
[2020.09.10-09.11.47:116][  0]LogConfig: Applying CVar settings from Section [PostProcessQuality@3] File [C:/Users/ROG/Documents/Unreal Projects/FIT2097Assignment1/Saved/Config/Windows/Scalability.ini]
[2020.09.10-09.11.47:116][  0]LogConfig: Setting CVar [[r.MotionBlurQuality:4]]
[2020.09.10-09.11.47:116][  0]LogConfig: Setting CVar [[r.AmbientOcclusionMipLevelFactor:0.4]]
[2020.09.10-09.11.47:116][  0]LogConfig: Setting CVar [[r.AmbientOcclusionMaxQuality:100]]
[2020.09.10-09.11.47:116][  0]LogConfig: Setting CVar [[r.AmbientOcclusionLevels:-1]]
[2020.09.10-09.11.47:116][  0]LogConfig: Setting CVar [[r.AmbientOcclusionRadiusScale:1.0]]
[2020.09.10-09.11.47:116][  0]LogConfig: Setting CVar [[r.DepthOfFieldQuality:2]]
[2020.09.10-09.11.47:116][  0]LogConfig: Setting CVar [[r.RenderTargetPoolMin:400]]
[2020.09.10-09.11.47:116][  0]LogConfig: Setting CVar [[r.LensFlareQuality:2]]
[2020.09.10-09.11.47:116][  0]LogConfig: Setting CVar [[r.SceneColorFringeQuality:1]]
[2020.09.10-09.11.47:116][  0]LogConfig: Setting CVar [[r.EyeAdaptationQuality:2]]
[2020.09.10-09.11.47:116][  0]LogConfig: Setting CVar [[r.BloomQuality:5]]
[2020.09.10-09.11.47:116][  0]LogConfig: Setting CVar [[r.FastBlurThreshold:100]]
[2020.09.10-09.11.47:116][  0]LogConfig: Setting CVar [[r.Upscale.Quality:3]]
[2020.09.10-09.11.47:116][  0]LogConfig: Setting CVar [[r.Tonemapper.GrainQuantization:1]]
[2020.09.10-09.11.47:116][  0]LogConfig: Setting CVar [[r.LightShaftQuality:1]]
[2020.09.10-09.11.47:116][  0]LogConfig: Setting CVar [[r.Filter.SizeScale:1]]
[2020.09.10-09.11.47:116][  0]LogConfig: Setting CVar [[r.Tonemapper.Quality:5]]
[2020.09.10-09.11.47:116][  0]LogConfig: Setting CVar [[r.DOF.Gather.AccumulatorQuality:1        ; higher gathering accumulator quality]]
[2020.09.10-09.11.47:116][  0]LogConfig: Setting CVar [[r.DOF.Gather.PostfilterMethod:1          ; Median3x3 postfilering method]]
[2020.09.10-09.11.47:116][  0]LogConfig: Setting CVar [[r.DOF.Gather.EnableBokehSettings:0       ; no bokeh simulation when gathering]]
[2020.09.10-09.11.47:116][  0]LogConfig: Setting CVar [[r.DOF.Gather.RingCount:4                 ; medium number of samples when gathering]]
[2020.09.10-09.11.47:116][  0]LogConfig: Setting CVar [[r.DOF.Scatter.ForegroundCompositing:1    ; additive foreground scattering]]
[2020.09.10-09.11.47:116][  0]LogConfig: Setting CVar [[r.DOF.Scatter.BackgroundCompositing:2    ; additive background scattering]]
[2020.09.10-09.11.47:116][  0]LogConfig: Setting CVar [[r.DOF.Scatter.EnableBokehSettings:1      ; bokeh simulation when scattering]]
[2020.09.10-09.11.47:116][  0]LogConfig: Setting CVar [[r.DOF.Scatter.MaxSpriteRatio:0.1         ; only a maximum of 10% of scattered bokeh]]
[2020.09.10-09.11.47:116][  0]LogConfig: Setting CVar [[r.DOF.Recombine.Quality:1                ; cheap slight out of focus]]
[2020.09.10-09.11.47:116][  0]LogConfig: Setting CVar [[r.DOF.Recombine.EnableBokehSettings:0    ; no bokeh simulation on slight out of focus]]
[2020.09.10-09.11.47:116][  0]LogConfig: Setting CVar [[r.DOF.TemporalAAQuality:1                ; more stable temporal accumulation]]
[2020.09.10-09.11.47:116][  0]LogConfig: Setting CVar [[r.DOF.Kernel.MaxForegroundRadius:0.025]]
[2020.09.10-09.11.47:116][  0]LogConfig: Setting CVar [[r.DOF.Kernel.MaxBackgroundRadius:0.025]]
[2020.09.10-09.11.47:116][  0]LogConfig: Applying CVar settings from Section [TextureQuality@3] File [C:/Users/ROG/Documents/Unreal Projects/FIT2097Assignment1/Saved/Config/Windows/Scalability.ini]
[2020.09.10-09.11.47:116][  0]LogConfig: Setting CVar [[r.Streaming.MipBias:0]]
[2020.09.10-09.11.47:116][  0]LogConfig: Setting CVar [[r.Streaming.AmortizeCPUToGPUCopy:0]]
[2020.09.10-09.11.47:116][  0]LogConfig: Setting CVar [[r.Streaming.MaxNumTexturesToStreamPerFrame:0]]
[2020.09.10-09.11.47:116][  0]LogConfig: Setting CVar [[r.Streaming.Boost:1]]
[2020.09.10-09.11.47:116][  0]LogConfig: Setting CVar [[r.MaxAnisotropy:8]]
[2020.09.10-09.11.47:116][  0]LogConfig: Setting CVar [[r.VT.MaxAnisotropy:8]]
[2020.09.10-09.11.47:116][  0]LogConfig: Setting CVar [[r.Streaming.LimitPoolSizeToVRAM:0]]
[2020.09.10-09.11.47:116][  0]LogConfig: Setting CVar [[r.Streaming.PoolSize:1000]]
[2020.09.10-09.11.47:116][  0]LogConfig: Setting CVar [[r.Streaming.MaxEffectiveScreenSize:0]]
[2020.09.10-09.11.47:116][  0]LogConfig: Applying CVar settings from Section [EffectsQuality@3] File [C:/Users/ROG/Documents/Unreal Projects/FIT2097Assignment1/Saved/Config/Windows/Scalability.ini]
[2020.09.10-09.11.47:116][  0]LogConfig: Setting CVar [[r.TranslucencyLightingVolumeDim:64]]
[2020.09.10-09.11.47:116][  0]LogConfig: Setting CVar [[r.RefractionQuality:2]]
[2020.09.10-09.11.47:116][  0]LogConfig: Setting CVar [[r.SSR.Quality:3]]
[2020.09.10-09.11.47:116][  0]LogConfig: Setting CVar [[r.SSR.HalfResSceneColor:0]]
[2020.09.10-09.11.47:116][  0]LogConfig: Setting CVar [[r.SceneColorFormat:4]]
[2020.09.10-09.11.47:116][  0]LogConfig: Setting CVar [[r.DetailMode:2]]
[2020.09.10-09.11.47:116][  0]LogConfig: Setting CVar [[r.TranslucencyVolumeBlur:1]]
[2020.09.10-09.11.47:116][  0]LogConfig: Setting CVar [[r.MaterialQualityLevel:1 ; High quality]]
[2020.09.10-09.11.47:116][  0]LogConfig: Setting CVar [[r.SSS.Scale:1]]
[2020.09.10-09.11.47:116][  0]LogConfig: Setting CVar [[r.SSS.SampleSet:2]]
[2020.09.10-09.11.47:116][  0]LogConfig: Setting CVar [[r.SSS.Quality:1]]
[2020.09.10-09.11.47:116][  0]LogConfig: Setting CVar [[r.SSS.HalfRes:0]]
[2020.09.10-09.11.47:116][  0]LogConfig: Setting CVar [[r.SSGI.Quality:3]]
[2020.09.10-09.11.47:116][  0]LogConfig: Setting CVar [[r.EmitterSpawnRateScale:1.0]]
[2020.09.10-09.11.47:116][  0]LogConfig: Setting CVar [[r.ParticleLightQuality:2]]
[2020.09.10-09.11.47:116][  0]LogConfig: Setting CVar [[r.SkyAtmosphere.AerialPerspectiveLUT.FastApplyOnOpaque:1 ; Always have FastSkyLUT 1 in this case to avoid wrong sky]]
[2020.09.10-09.11.47:116][  0]LogConfig: Setting CVar [[r.SkyAtmosphere.AerialPerspectiveLUT.SampleCountPerSlice:1]]
[2020.09.10-09.11.47:116][  0]LogConfig: Setting CVar [[r.SkyAtmosphere.AerialPerspectiveLUT.DepthResolution:16.0]]
[2020.09.10-09.11.47:116][  0]LogConfig: Setting CVar [[r.SkyAtmosphere.FastSkyLUT:1]]
[2020.09.10-09.11.47:116][  0]LogConfig: Setting CVar [[r.SkyAtmosphere.FastSkyLUT.SampleCountMin:4.0]]
[2020.09.10-09.11.47:116][  0]LogConfig: Setting CVar [[r.SkyAtmosphere.FastSkyLUT.SampleCountMax:32.0]]
[2020.09.10-09.11.47:116][  0]LogConfig: Setting CVar [[r.SkyAtmosphere.SampleCountMin:4.0]]
[2020.09.10-09.11.47:116][  0]LogConfig: Setting CVar [[r.SkyAtmosphere.SampleCountMax:32.0]]
[2020.09.10-09.11.47:116][  0]LogConfig: Setting CVar [[r.SkyAtmosphere.TransmittanceLUT.UseSmallFormat:0]]
[2020.09.10-09.11.47:116][  0]LogConfig: Setting CVar [[r.SkyAtmosphere.TransmittanceLUT.SampleCount:10.0]]
[2020.09.10-09.11.47:116][  0]LogConfig: Setting CVar [[r.SkyAtmosphere.MultiScatteringLUT.SampleCount:15.0]]
[2020.09.10-09.11.47:116][  0]LogConfig: Applying CVar settings from Section [FoliageQuality@3] File [C:/Users/ROG/Documents/Unreal Projects/FIT2097Assignment1/Saved/Config/Windows/Scalability.ini]
[2020.09.10-09.11.47:116][  0]LogConfig: Setting CVar [[foliage.DensityScale:1.0]]
[2020.09.10-09.11.47:117][  0]LogConfig: Setting CVar [[grass.DensityScale:1.0]]
[2020.09.10-09.11.47:117][  0]LogConfig: Applying CVar settings from Section [ShadingQuality@3] File [C:/Users/ROG/Documents/Unreal Projects/FIT2097Assignment1/Saved/Config/Windows/Scalability.ini]
[2020.09.10-09.11.47:117][  0]LogConfig: Setting CVar [[r.HairStrands.SkyLighting.SampleCount:16]]
[2020.09.10-09.11.47:117][  0]LogConfig: Setting CVar [[r.HairStrands.SkyLighting.JitterIntegration:0]]
[2020.09.10-09.11.47:117][  0]LogConfig: Setting CVar [[r.HairStrands.SkyAO.SampleCount:16]]
[2020.09.10-09.11.47:117][  0]LogConfig: Setting CVar [[r.HairStrands.DeepShadow.SuperSampling:0]]
[2020.09.10-09.11.47:117][  0]LogConfig: Setting CVar [[r.HairStrands.VisibilityPPLL:0]]
[2020.09.10-09.11.47:117][  0]LogConfig: Setting CVar [[r.HairStrands.RasterizationScale:0.5]]
[2020.09.10-09.11.47:117][  0]LogConfig: Setting CVar [[r.HairStrands.VelocityRasterizationScale:1]]
[2020.09.10-09.11.47:117][  0]LogConfig: Applying CVar settings from Section [Startup] File [../../../Engine/Config/ConsoleVariables.ini]
[2020.09.10-09.11.47:117][  0]LogConfig: Setting CVar [[net.UseAdaptiveNetUpdateFrequency:0]]
[2020.09.10-09.11.47:117][  0]LogConfig: Setting CVar [[p.chaos.AllowCreatePhysxBodies:1]]
[2020.09.10-09.11.47:117][  0]LogConfig: Setting CVar [[fx.SkipVectorVMBackendOptimizations:1]]
[2020.09.10-09.11.47:117][  0]LogConfig: Applying CVar settings from Section [ConsoleVariables] File [C:/Users/ROG/Documents/Unreal Projects/FIT2097Assignment1/Saved/Config/Windows/Engine.ini]
[2020.09.10-09.11.47:117][  0]LogInit: Computer: LAPTOP-IUU3RSTE
[2020.09.10-09.11.47:117][  0]LogInit: User: ROG
[2020.09.10-09.11.47:117][  0]LogInit: CPU Page size=4096, Cores=6
[2020.09.10-09.11.47:117][  0]LogInit: High frequency timer resolution =10.000000 MHz
[2020.09.10-09.11.47:117][  0]LogMemory: Memory total: Physical=31.9GB (32GB approx)
[2020.09.10-09.11.47:118][  0]LogMemory: Platform Memory Stats for Windows
[2020.09.10-09.11.47:118][  0]LogMemory: Process Physical Memory: 116.80 MB used, 116.80 MB peak
[2020.09.10-09.11.47:118][  0]LogMemory: Process Virtual Memory: 105.57 MB used, 105.57 MB peak
[2020.09.10-09.11.47:118][  0]LogMemory: Physical Memory: 12230.80 MB used,  20459.71 MB free, 32690.51 MB total
[2020.09.10-09.11.47:118][  0]LogMemory: Virtual Memory: 5173.23 MB used,  134212552.00 MB free, 134217728.00 MB total
[2020.09.10-09.11.47:130][  0]LogWindows: WindowsPlatformFeatures enabled
[2020.09.10-09.11.47:181][  0]LogInit: Physics initialised using underlying interface: PhysX
[2020.09.10-09.11.47:182][  0]LogInit: Using OS detected language (en-GB).
[2020.09.10-09.11.47:182][  0]LogInit: Using OS detected locale (en-AU).
[2020.09.10-09.11.47:187][  0]LogTextLocalizationManager: No specific localization for 'en-GB' exists, so the 'en' localization will be used.
[2020.09.10-09.11.47:362][  0]LogInit: Setting process to per monitor DPI aware
[2020.09.10-09.11.47:396][  0]LogSlate: New Slate User Created.  User Index 0, Is Virtual User: 0
[2020.09.10-09.11.47:396][  0]LogSlate: Slate User Registered.  User Index 0, Is Virtual User: 0
[2020.09.10-09.11.47:527][  0]LogHMD: Failed to initialize OpenVR with code 110
[2020.09.10-09.11.47:527][  0]LogD3D11RHI: D3D11 min allowed feature level: 11_0
[2020.09.10-09.11.47:527][  0]LogD3D11RHI: D3D11 max allowed feature level: 11_0
[2020.09.10-09.11.47:527][  0]LogD3D11RHI: D3D11 adapters:
[2020.09.10-09.11.47:597][  0]LogD3D11RHI:    0. 'NVIDIA GeForce GTX 1080' (Feature Level 11_0)
[2020.09.10-09.11.47:597][  0]LogD3D11RHI:       8079/0/16345 MB DedicatedVideo/DedicatedSystem/SharedSystem, Outputs:1, VendorId:0x10de
[2020.09.10-09.11.47:600][  0]LogD3D11RHI:    1. 'Microsoft Basic Render Driver' (Feature Level 11_0)
[2020.09.10-09.11.47:600][  0]LogD3D11RHI:       0/0/16345 MB DedicatedVideo/DedicatedSystem/SharedSystem, Outputs:0, VendorId:0x1414
[2020.09.10-09.11.47:603][  0]LogD3D11RHI:    2. 'Microsoft Basic Render Driver' (Feature Level 11_0)
[2020.09.10-09.11.47:603][  0]LogD3D11RHI:       0/0/16345 MB DedicatedVideo/DedicatedSystem/SharedSystem, Outputs:0, VendorId:0x1414
[2020.09.10-09.11.47:603][  0]LogD3D11RHI: Chosen D3D11 Adapter: 0
[2020.09.10-09.11.47:612][  0]LogD3D11RHI: Creating new Direct3DDevice
[2020.09.10-09.11.47:612][  0]LogD3D11RHI:     GPU DeviceId: 0x1be0 (for the marketing name, search the web for "GPU Device Id")
[2020.09.10-09.11.47:612][  0]LogWindows: EnumDisplayDevices:
[2020.09.10-09.11.47:612][  0]LogWindows:    0. 'NVIDIA GeForce GTX 1080' (P:1 D:1)
[2020.09.10-09.11.47:613][  0]LogWindows:    1. 'NVIDIA GeForce GTX 1080' (P:0 D:0)
[2020.09.10-09.11.47:613][  0]LogWindows:    2. 'NVIDIA GeForce GTX 1080' (P:0 D:0)
[2020.09.10-09.11.47:614][  0]LogWindows:    3. 'NVIDIA GeForce GTX 1080' (P:0 D:0)
[2020.09.10-09.11.47:614][  0]LogWindows:    4. 'Citrix Indirect Display Adapter' (P:0 D:0)
[2020.09.10-09.11.47:615][  0]LogWindows:    5. 'Citrix Indirect Display Adapter' (P:0 D:0)
[2020.09.10-09.11.47:616][  0]LogWindows:    6. 'Citrix Indirect Display Adapter' (P:0 D:0)
[2020.09.10-09.11.47:616][  0]LogWindows:    7. 'Citrix Indirect Display Adapter' (P:0 D:0)
[2020.09.10-09.11.47:617][  0]LogWindows:    8. 'Citrix Indirect Display Adapter' (P:0 D:0)
[2020.09.10-09.11.47:617][  0]LogWindows:    9. 'Citrix Indirect Display Adapter' (P:0 D:0)
[2020.09.10-09.11.47:618][  0]LogWindows:    10. 'Citrix Indirect Display Adapter' (P:0 D:0)
[2020.09.10-09.11.47:618][  0]LogWindows:    11. 'Citrix Indirect Display Adapter' (P:0 D:0)
[2020.09.10-09.11.47:619][  0]LogWindows: DebugString: GetVideoDriverDetailsInvalid PrimaryIsNotTheChoosenAdapter GetVideoDriverDetailsInvalid PrimaryIsNotTheChoosenAdapter GetVideoDriverDetailsInvalid PrimaryIsNotTheChoosenAdapter GetVideoDriverDetailsInvalid PrimaryIsNotTheChoosenAdapter GetVideoDriverDetailsInvalid PrimaryIsNotTheChoosenAdapter GetVideoDriverDetailsInvalid PrimaryIsNotTheChoosenAdapter GetVideoDriverDetailsInvalid PrimaryIsNotTheChoosenAdapter GetVideoDriverDetailsInvalid PrimaryIsNotTheChoosenAdapter FoundDriverCount:4 
[2020.09.10-09.11.47:619][  0]LogD3D11RHI:     Adapter Name: NVIDIA GeForce GTX 1080
[2020.09.10-09.11.47:619][  0]LogD3D11RHI:   Driver Version: 451.67 (internal:27.21.14.5167, unified:451.67)
[2020.09.10-09.11.47:619][  0]LogD3D11RHI:      Driver Date: 7-5-2020
[2020.09.10-09.11.47:619][  0]LogRHI: Texture pool is 5655 MB (70% of 8079 MB)
[2020.09.10-09.11.47:663][  0]LogD3D11RHI: RHI has support for 64 bit atomics
[2020.09.10-09.11.47:666][  0]LogD3D11RHI: [Aftermath] Enabled and primed
[2020.09.10-09.11.47:666][  0]LogD3D11RHI: Async texture creation enabled
[2020.09.10-09.11.47:666][  0]LogD3D11RHI: Array index from any shader is supported
[2020.09.10-09.11.47:686][  0]LogD3D11RHI: GPU Timing Frequency: 1000.000000 (Debug: 2 1)
[2020.09.10-09.11.48:073][  0]LogTargetPlatformManager: Display: Loaded TargetPlatform 'AllDesktop'
[2020.09.10-09.11.48:097][  0]LogTargetPlatformManager: Display: Loaded TargetPlatform 'Android'
[2020.09.10-09.11.48:097][  0]LogTargetPlatformManager: Display: Loaded TargetPlatform 'Android_ASTC'
[2020.09.10-09.11.48:097][  0]LogTargetPlatformManager: Display: Loaded TargetPlatform 'Android_DXT'
[2020.09.10-09.11.48:097][  0]LogTargetPlatformManager: Display: Loaded TargetPlatform 'Android_ETC2'
[2020.09.10-09.11.48:097][  0]LogTargetPlatformManager: Display: Loaded TargetPlatform 'AndroidClient'
[2020.09.10-09.11.48:097][  0]LogTargetPlatformManager: Display: Loaded TargetPlatform 'Android_ASTCClient'
[2020.09.10-09.11.48:097][  0]LogTargetPlatformManager: Display: Loaded TargetPlatform 'Android_DXTClient'
[2020.09.10-09.11.48:097][  0]LogTargetPlatformManager: Display: Loaded TargetPlatform 'Android_ETC2Client'
[2020.09.10-09.11.48:097][  0]LogTargetPlatformManager: Display: Loaded TargetPlatform 'Android_Multi'
[2020.09.10-09.11.48:097][  0]LogTargetPlatformManager: Display: Loaded TargetPlatform 'Android_MultiClient'
[2020.09.10-09.11.48:125][  0]LogTargetPlatformManager: Display: Loaded TargetPlatform 'IOSClient'
[2020.09.10-09.11.48:125][  0]LogTargetPlatformManager: Display: Loaded TargetPlatform 'IOS'
[2020.09.10-09.11.48:138][  0]LogTargetPlatformManager: Display: Loaded TargetPlatform 'Linux'
[2020.09.10-09.11.48:150][  0]LogTargetPlatformManager: Display: Loaded TargetPlatform 'LinuxNoEditor'
[2020.09.10-09.11.48:161][  0]LogTargetPlatformManager: Display: Loaded TargetPlatform 'LinuxClient'
[2020.09.10-09.11.48:172][  0]LogTargetPlatformManager: Display: Loaded TargetPlatform 'LinuxServer'
[2020.09.10-09.11.48:183][  0]LogTargetPlatformManager: Display: Loaded TargetPlatform 'LinuxAArch64NoEditor'
[2020.09.10-09.11.48:194][  0]LogTargetPlatformManager: Display: Loaded TargetPlatform 'LinuxAArch64Client'
[2020.09.10-09.11.48:205][  0]LogTargetPlatformManager: Display: Loaded TargetPlatform 'LinuxAArch64Server'
[2020.09.10-09.11.48:238][  0]LogTargetPlatformManager: Display: Loaded TargetPlatform 'Lumin'
[2020.09.10-09.11.48:238][  0]LogTargetPlatformManager: Display: Loaded TargetPlatform 'LuminClient'
[2020.09.10-09.11.48:256][  0]LogTargetPlatformManager: Display: Loaded TargetPlatform 'TVOSClient'
[2020.09.10-09.11.48:256][  0]LogTargetPlatformManager: Display: Loaded TargetPlatform 'TVOS'
[2020.09.10-09.11.48:267][  0]LogTargetPlatformManager: Display: Loaded TargetPlatform 'WindowsNoEditor'
[2020.09.10-09.11.48:279][  0]LogTargetPlatformManager: Display: Loaded TargetPlatform 'Windows'
[2020.09.10-09.11.48:290][  0]LogTargetPlatformManager: Display: Loaded TargetPlatform 'WindowsClient'
[2020.09.10-09.11.48:302][  0]LogTargetPlatformManager: Display: Loaded TargetPlatform 'WindowsServer'
[2020.09.10-09.11.48:302][  0]LogTargetPlatformManager: Display: Building Assets For Windows
[2020.09.10-09.11.48:314][  0]LogAudioDebug: Display: Lib vorbis DLL was dynamically loaded.
[2020.09.10-09.11.48:411][  0]LogShaderCompilers: Guid format shader working directory is -14 characters bigger than the processId version (C:/Users/ROG/Documents/Unreal Projects/FIT2097Assignment1/Intermediate/Shaders/WorkingDirectory/17856/).
[2020.09.10-09.11.48:411][  0]LogShaderCompilers: Cleaned the shader compiler working directory 'C:/Users/ROG/AppData/Local/Temp/UnrealShaderWorkingDir/C05902684061E0FCC6AEE1ABB0F22C9C/'.
[2020.09.10-09.11.48:412][  0]LogXGEController: Cleaning working directory: C:/Users/ROG/AppData/Local/Temp/UnrealXGEWorkingDir/
[2020.09.10-09.11.48:413][  0]LogXGEController: Cannot use XGE Controller as Incredibuild is not installed on this machine.
[2020.09.10-09.11.48:413][  0]LogShaderCompilers: Cannot use XGE Shader Compiler as Incredibuild is not installed on this machine.
[2020.09.10-09.11.48:413][  0]LogShaderCompilers: Display: Using Local Shader Compiler.
[2020.09.10-09.11.49:120][  0]LogDerivedDataCache: Display: Max Cache Size: 512 MB
[2020.09.10-09.11.49:170][  0]LogDerivedDataCache: Loaded boot cache 0.05s 76MB C:/Users/ROG/AppData/Local/UnrealEngine/4.25/DerivedDataCache/Boot.ddc.
[2020.09.10-09.11.49:170][  0]LogDerivedDataCache: Display: Loaded Boot cache: C:/Users/ROG/AppData/Local/UnrealEngine/4.25/DerivedDataCache/Boot.ddc
[2020.09.10-09.11.49:170][  0]LogDerivedDataCache: FDerivedDataBackendGraph:  Pak pak cache file C:/Users/ROG/Documents/Unreal Projects/FIT2097Assignment1/DerivedDataCache/DDC.ddp not found, will not use a pak cache.
[2020.09.10-09.11.49:170][  0]LogDerivedDataCache: Unable to find inner node Pak for hierarchical cache Hierarchy.
[2020.09.10-09.11.49:170][  0]LogDerivedDataCache: FDerivedDataBackendGraph:  CompressedPak pak cache file C:/Users/ROG/Documents/Unreal Projects/FIT2097Assignment1/DerivedDataCache/Compressed.ddp not found, will not use a pak cache.
[2020.09.10-09.11.49:170][  0]LogDerivedDataCache: Unable to find inner node CompressedPak for hierarchical cache Hierarchy.
[2020.09.10-09.11.49:178][  0]LogDerivedDataCache: Display: Pak cache opened for reading ../../../Engine/DerivedDataCache/Compressed.ddp.
[2020.09.10-09.11.49:179][  0]LogDerivedDataCache: FDerivedDataBackendGraph:  EnterprisePak pak cache file ../../../Enterprise/DerivedDataCache/Compressed.ddp not found, will not use a pak cache.
[2020.09.10-09.11.49:179][  0]LogDerivedDataCache: Unable to find inner node EnterprisePak for hierarchical cache Hierarchy.
[2020.09.10-09.11.49:181][  0]LogDerivedDataCache: Using Local data cache path C:/Users/ROG/AppData/Local/UnrealEngine/Common/DerivedDataCache: Writable
[2020.09.10-09.11.49:181][  0]LogDerivedDataCache: Shared data cache path not found in *engine.ini, will not use an Shared cache.
[2020.09.10-09.11.49:181][  0]LogDerivedDataCache: Unable to find inner node Shared for hierarchical cache Hierarchy.
[2020.09.10-09.11.49:228][  0]LogSlate: Using FreeType 2.10.0
[2020.09.10-09.11.49:228][  0]LogSlate: SlateFontServices - WITH_FREETYPE: 1, WITH_HARFBUZZ: 1
[2020.09.10-09.11.49:257][  0]LogAssetRegistry: FAssetRegistry took 0.0026 seconds to start up
[2020.09.10-09.11.49:475][  0]LogInit: Selected Device Profile: [Windows]
[2020.09.10-09.11.49:607][  0]LogMeshReduction: Using QuadricMeshReduction for automatic static mesh reduction
[2020.09.10-09.11.49:607][  0]LogMeshReduction: Using SimplygonMeshReduction for automatic skeletal mesh reduction
[2020.09.10-09.11.49:607][  0]LogMeshReduction: Using ProxyLODMeshReduction for automatic mesh merging
[2020.09.10-09.11.49:607][  0]LogMeshReduction: No distributed automatic mesh merging module available
[2020.09.10-09.11.49:607][  0]LogMeshMerging: No distributed automatic mesh merging module available
[2020.09.10-09.11.49:628][  0]LogNetVersion: FIT2097Assignment1 1.0.0, NetCL: 13144385, EngineNetVer: 14, GameNetVer: 0 (Checksum: 355564597)
[2020.09.10-09.11.50:071][  0]LogAISub: UAISubsystem::UAISubsystem AISubsystem (000001C83C1942C0), frame # 0
[2020.09.10-09.11.50:071][  0]LogAISub: UAISubsystem::UAISubsystem AIPerceptionSystem (000001C83C0EAAC0), frame # 0
[2020.09.10-09.11.50:072][  0]LogAISub: UAISubsystem::UAISubsystem EnvQueryManager (000001C83C131E00), frame # 0
[2020.09.10-09.11.50:136][  0]LogPackageLocalizationCache: Processed 19 localized package path(s) for 1 prioritized culture(s) in 0.059413 seconds
[2020.09.10-09.11.50:141][  0]LogUObjectArray: 15917 objects as part of root set at end of initial load.
[2020.09.10-09.11.50:141][  0]LogUObjectAllocator: 3965568 out of 0 bytes used by permanent object pool.
[2020.09.10-09.11.50:141][  0]LogUObjectArray: CloseDisregardForGC: 0/0 objects in disregard for GC pool
[2020.09.10-09.11.50:887][  0]LogTcpMessaging: Initializing TcpMessaging bridge
[2020.09.10-09.11.50:893][  0]LogUdpMessaging: Initializing bridge on interface 0.0.0.0:0 to multicast group 230.0.0.1:6666.
[2020.09.10-09.11.51:306][  0]LogStats: FPlatformStackWalk::StackWalkAndDump -  0.353 s
[2020.09.10-09.11.51:306][  0]LogOutputDevice: Error: === Handled ensure: ===
[2020.09.10-09.11.51:306][  0]LogOutputDevice: Error: 
[2020.09.10-09.11.51:306][  0]LogOutputDevice: Error: Ensure condition failed: this->IsBound() [File:D:\UE_4.25\Engine\Source\Runtime\Core\Public\Delegates/DelegateSignatureImpl.inl] [Line: 1132]
[2020.09.10-09.11.51:306][  0]LogOutputDevice: Error: Unable to bind delegate to 'OnOverlapEnd' (function might not be marked as a UFUNCTION or object may be pending kill)
[2020.09.10-09.11.51:306][  0]LogOutputDevice: Error: Stack: 
[2020.09.10-09.11.51:306][  0]LogOutputDevice: Error: [Callstack] 0x00007ffaa975f6c8 UE4Editor-FIT2097Assignment1-4534.dll!DispatchCheckVerify<bool,<lambda_f054e0f7de5f767dcac6e5cd323403a8> >() [D:\UE_4.25\Engine\Source\Runtime\Core\Public\Misc\AssertionMacros.h:161]
[2020.09.10-09.11.51:306][  0]LogOutputDevice: Error: [Callstack] 0x00007ffaa9755e56 UE4Editor-FIT2097Assignment1-4534.dll!APlayerCharacter::APlayerCharacter() [C:\Users\ROG\Documents\Unreal Projects\FIT2097Assignment1\Source\FIT2097Assignment1\PlayerCharacter.cpp:33]
[2020.09.10-09.11.51:306][  0]LogOutputDevice: Error: [Callstack] 0x00007ffaeccbc223 UE4Editor-CoreUObject.dll!UnknownFunction []
[2020.09.10-09.11.51:306][  0]LogOutputDevice: Error: [Callstack] 0x00007ffaecf68481 UE4Editor-CoreUObject.dll!UnknownFunction []
[2020.09.10-09.11.51:307][  0]LogOutputDevice: Error: [Callstack] 0x00007ffaecf45bef UE4Editor-CoreUObject.dll!UnknownFunction []
[2020.09.10-09.11.51:307][  0]LogOutputDevice: Error: [Callstack] 0x00007ffaece643d5 UE4Editor-CoreUObject.dll!UnknownFunction []
[2020.09.10-09.11.51:307][  0]LogOutputDevice: Error: [Callstack] 0x00007ffac998987a UE4Editor-Core.dll!UnknownFunction []
[2020.09.10-09.11.51:307][  0]LogOutputDevice: Error: [Callstack] 0x00007ffac99a9a00 UE4Editor-Core.dll!UnknownFunction []
[2020.09.10-09.11.51:307][  0]LogOutputDevice: Error: [Callstack] 0x00007ffb085bb433 UE4Editor-Projects.dll!UnknownFunction []
[2020.09.10-09.11.51:307][  0]LogOutputDevice: Error: [Callstack] 0x00007ffb085bb70d UE4Editor-Projects.dll!UnknownFunction []
[2020.09.10-09.11.51:307][  0]LogOutputDevice: Error: [Callstack] 0x00007ff65705fa92 UE4Editor.exe!UnknownFunction []
[2020.09.10-09.11.51:307][  0]LogOutputDevice: Error: [Callstack] 0x00007ff6570626f5 UE4Editor.exe!UnknownFunction []
[2020.09.10-09.11.51:307][  0]LogOutputDevice: Error: [Callstack] 0x00007ff65705b7ec UE4Editor.exe!UnknownFunction []
[2020.09.10-09.11.51:307][  0]LogOutputDevice: Error: [Callstack] 0x00007ff65705bb5a UE4Editor.exe!UnknownFunction []
[2020.09.10-09.11.51:307][  0]LogOutputDevice: Error: [Callstack] 0x00007ff65706e31d UE4Editor.exe!UnknownFunction []
[2020.09.10-09.11.51:307][  0]LogOutputDevice: Error: [Callstack] 0x00007ff65707145a UE4Editor.exe!UnknownFunction []
[2020.09.10-09.11.51:307][  0]LogOutputDevice: Error: [Callstack] 0x00007ffb222a7bd4 KERNEL32.DLL!UnknownFunction []
[2020.09.10-09.11.51:307][  0]LogOutputDevice: Error: [Callstack] 0x00007ffb22ccce51 ntdll.dll!UnknownFunction []
[2020.09.10-09.11.51:307][  0]LogOutputDevice: Error: 
[2020.09.10-09.11.51:312][  0]LogStats:                SubmitErrorReport -  0.000 s
[2020.09.10-09.11.52:507][  0]LogStats:                    SendNewReport -  1.195 s
[2020.09.10-09.11.52:507][  0]LogStats:             FDebug::EnsureFailed -  1.554 s
[2020.09.10-09.11.52:603][  0]SourceControl: Source control is disabled
[2020.09.10-09.11.52:603][  0]SourceControl: Source control is disabled
[2020.09.10-09.11.52:607][  0]SourceControl: Source control is disabled
[2020.09.10-09.11.52:611][  0]SourceControl: Source control is disabled
[2020.09.10-09.11.52:623][  0]SourceControl: Source control is disabled
[2020.09.10-09.11.52:981][  0]LogAndroidPermission: UAndroidPermissionCallbackProxy::GetInstance
[2020.09.10-09.11.53:011][  0]LogAudioCaptureCore: Display: No Audio Capture implementations found. Audio input will be silent.
[2020.09.10-09.11.53:011][  0]LogAudioCaptureCore: Display: No Audio Capture implementations found. Audio input will be silent.
[2020.09.10-09.11.53:074][  0]LogOcInput: OculusInput pre-init called
[2020.09.10-09.11.53:093][  0]LogWindows: Failed to load 'OVRPlugin.dll' (GetLastError=126)
[2020.09.10-09.11.53:093][  0]LogWindows: File 'OVRPlugin.dll' does not exist
[2020.09.10-09.11.53:161][  0]LogEngine: Initializing Engine...
[2020.09.10-09.11.53:162][  0]LogHMD: Failed to initialize OpenVR with code 110
[2020.09.10-09.11.53:162][  0]LogMagicLeap: Warning: VR disabled because ZI is not enabled.  To enable, in the editor, Edit -> Project Settings -> Plugins -> Magic Leap Plugin -> Enable Zero Iteration
[2020.09.10-09.11.53:163][  0]LogStats: UGameplayTagsManager::InitializeManager -  0.000 s
[2020.09.10-09.11.53:269][  0]LogInit: Initializing FReadOnlyCVARCache
[2020.09.10-09.11.53:280][  0]LogAIModule: Creating AISystem for world Untitled
[2020.09.10-09.11.53:280][  0]LogAISub: UAISubsystem::UAISubsystem EnvQueryManager (000001C83F721A00), frame # 0
[2020.09.10-09.11.53:280][  0]LogAISub: UAISubsystem::UAISubsystem AIPerceptionSystem (000001C83F75D300), frame # 0
[2020.09.10-09.11.53:294][  0]LogAudioMixer: Display: Audio Mixer Platform Settings:
[2020.09.10-09.11.53:294][  0]LogAudioMixer: Display: 	Sample Rate:						  48000
[2020.09.10-09.11.53:294][  0]LogAudioMixer: Display: 	Callback Buffer Frame Size Requested: 1024
[2020.09.10-09.11.53:294][  0]LogAudioMixer: Display: 	Callback Buffer Frame Size To Use:	  1024
[2020.09.10-09.11.53:294][  0]LogAudioMixer: Display: 	Number of buffers to queue:			  2
[2020.09.10-09.11.53:294][  0]LogAudioMixer: Display: 	Max Channels (voices):				  32
[2020.09.10-09.11.53:294][  0]LogAudioMixer: Display: 	Number of Async Source Workers:		  0
[2020.09.10-09.11.53:294][  0]LogAudio: Display: AudioDevice MaxSources: 32
[2020.09.10-09.11.53:294][  0]LogAudio: Display: Using built-in audio occlusion.
[2020.09.10-09.11.53:294][  0]LogAudioMixer: Display: Initializing audio mixer.
[2020.09.10-09.11.53:319][  0]LogAudioMixer: Display: 0: FrontLeft
[2020.09.10-09.11.53:319][  0]LogAudioMixer: Display: 1: FrontRight
[2020.09.10-09.11.53:377][  0]LogAudioMixer: Display: Using Audio Device 扬声器 (Realtek High Definition Audio)
[2020.09.10-09.11.53:379][  0]LogAudioMixer: Display: Initializing Sound Submixes...
[2020.09.10-09.11.53:381][  0]LogAudioMixer: Display: Creating Master Submix 'MasterSubmixDefault'
[2020.09.10-09.11.53:381][  0]LogAudioMixer: Display: Creating Master Submix 'MasterReverbSubmixDefault'
[2020.09.10-09.11.53:382][  0]LogAudioMixer: Display: Creating Master Submix 'MasterEQSubmixDefault'
[2020.09.10-09.11.53:383][  0]LogInit: FAudioDevice initialized.
[2020.09.10-09.11.53:383][  0]LogNetVersion: Set ProjectVersion to 1.0.0.0. Version Checksum will be recalculated on next use.
[2020.09.10-09.11.53:428][  0]LogDerivedDataCache: Saved boot cache 0.05s 76MB C:/Users/ROG/AppData/Local/UnrealEngine/4.25/DerivedDataCache/Boot.ddc.
[2020.09.10-09.11.53:429][  0]LogInit: Texture streaming: Enabled
[2020.09.10-09.11.53:460][  0]LogEngineSessionManager: EngineSessionManager initialized
[2020.09.10-09.11.53:460][  0]LogEngineSessionManager: EngineSessionManager sent abnormal shutdown report. Type=Crashed, SessionId={D09E209C-469C-F174-7B96-068067BC9C76}
[2020.09.10-09.11.53:460][  0]LogEditorSessionSummary: Verbose: Initializing EditorSessionSummaryWriter for editor session tracking
[2020.09.10-09.11.53:467][  0]LogEditorSessionSummary: EditorSessionSummaryWriter initialized
[2020.09.10-09.11.53:516][  0]LogInit: Transaction tracking system initialized
[2020.09.10-09.11.53:549][  0]BlueprintLog: New page: Editor Load
[2020.09.10-09.11.53:655][  0]LocalizationService: Localization service is disabled
[2020.09.10-09.11.53:850][  0]LogCook: Display: Max memory allowance for cook 16384mb min free memory 0mb
[2020.09.10-09.11.53:850][  0]LogCook: Display: Mobile HDR setting 1
[2020.09.10-09.11.54:031][  0]LogFileCache: Scanning file cache for directory 'C:/Users/ROG/Documents/Unreal Projects/FIT2097Assignment1/Content/' took 0.00s
[2020.09.10-09.11.54:284][  0]SourceControl: Source control is disabled
[2020.09.10-09.11.54:284][  0]LogUnrealEdMisc: Loading editor; pre map load, took 8.852
[2020.09.10-09.11.54:284][  0]Cmd: MAP LOAD FILE="C:/Users/ROG/Documents/Unreal Projects/FIT2097Assignment1/Content/StarterContent/Maps/Minimal_Default.umap" TEMPLATE=0 SHOWPROGRESS=1 FEATURELEVEL=3
[2020.09.10-09.11.54:285][  0]LightingResults: New page: Lighting Build
[2020.09.10-09.11.54:286][  0]LogWorld: UWorld::CleanupWorld for Untitled, bSessionEnded=true, bCleanupResources=true
[2020.09.10-09.11.54:286][  0]LogSlate: InvalidateAllWidgets triggered.  All widgets were invalidated
[2020.09.10-09.11.54:286][  0]MapCheck: New page: Map Check
[2020.09.10-09.11.54:286][  0]LightingResults: New page: Lighting Build
[2020.09.10-09.11.54:296][  0]LogAISub: UAISubsystem::~UAISubsystem EnvQueryManager (000001C83F721A00), frame # 0
[2020.09.10-09.11.54:297][  0]LogAISub: UAISubsystem::~UAISubsystem AIPerceptionSystem (000001C83F75D300), frame # 0
[2020.09.10-09.11.54:297][  0]LogUObjectHash: Compacting FUObjectHashTables data took   0.63ms
[2020.09.10-09.11.54:443][  0]LogAIModule: Creating AISystem for world Minimal_Default
[2020.09.10-09.11.54:444][  0]LogAISub: UAISubsystem::UAISubsystem EnvQueryManager (000001C847760200), frame # 0
[2020.09.10-09.11.54:444][  0]LogAISub: UAISubsystem::UAISubsystem AIPerceptionSystem (000001C847445940), frame # 0
[2020.09.10-09.11.54:449][  0]LogEditorServer: Finished looking for orphan Actors (0.000 secs)
[2020.09.10-09.11.54:463][  0]LogUObjectHash: Compacting FUObjectHashTables data took   0.98ms
[2020.09.10-09.11.54:464][  0]Cmd: MAP CHECKDEP NOCLEARLOG
[2020.09.10-09.11.54:464][  0]MapCheck: Map check complete: 0 Error(s), 0 Warning(s), took 0.398ms to complete.
[2020.09.10-09.11.54:464][  0]LogFileHelpers: Loading map 'Minimal_Default' took 0.180
[2020.09.10-09.11.54:468][  0]LogUnrealEdMisc: Total Editor Startup Time, took 9.036
[2020.09.10-09.11.54:597][  0]LogSlate: Updating window title bar state: overlay mode, drag disabled, window buttons hidden, title bar hidden
[2020.09.10-09.11.54:606][  0]LogSlate: Updating window title bar state: overlay mode, drag disabled, window buttons hidden, title bar hidden
[2020.09.10-09.11.54:613][  0]LogSlate: Updating window title bar state: overlay mode, drag disabled, window buttons hidden, title bar hidden
[2020.09.10-09.11.54:620][  0]LogSlate: Updating window title bar state: overlay mode, drag disabled, window buttons hidden, title bar hidden
[2020.09.10-09.11.54:633][  0]LogCollectionManager: Loaded 0 collections in 0.000772 seconds
[2020.09.10-09.11.54:651][  0]LogFileCache: Scanning file cache for directory 'C:/Users/ROG/Documents/Unreal Projects/FIT2097Assignment1/Saved/Collections/' took 0.00s
[2020.09.10-09.11.54:651][  0]LogFileCache: Scanning file cache for directory 'C:/Users/ROG/Documents/Unreal Projects/FIT2097Assignment1/Content/Developers/ROG/Collections/' took 0.00s
[2020.09.10-09.11.54:651][  0]LogFileCache: Scanning file cache for directory 'C:/Users/ROG/Documents/Unreal Projects/FIT2097Assignment1/Content/Collections/' took 0.00s
[2020.09.10-09.11.54:651][  0]LogContentBrowser: Native class hierarchy populated in 0.0122 seconds. Added 3433 classes and 823 folders.
[2020.09.10-09.11.54:655][  0]LogContentBrowser: Native class hierarchy updated for 'WidgetCarousel' in 0.0004 seconds. Added 0 classes and 0 folders.
[2020.09.10-09.11.54:713][  0]LogContentBrowser: Native class hierarchy updated for 'AddContentDialog' in 0.0004 seconds. Added 0 classes and 0 folders.
[2020.09.10-09.11.54:714][  0]LogContentBrowser: Native class hierarchy updated for 'SceneOutliner' in 0.0003 seconds. Added 2 classes and 0 folders.
[2020.09.10-09.11.54:745][  0]LogContentBrowser: Native class hierarchy updated for 'HierarchicalLODOutliner' in 0.0004 seconds. Added 0 classes and 0 folders.
[2020.09.10-09.11.54:745][  0]LogLoad: (Engine Initialization) Total time: 9.31 seconds
[2020.09.10-09.11.54:745][  0]LogLoad: (Engine Initialization) Total Blueprint compile time: 0.00 seconds
[2020.09.10-09.11.54:788][  0]LogAssetRegistry: Asset discovery search completed in 5.5324 seconds
[2020.09.10-09.11.54:792][  0]LogCollectionManager: Fixed up redirectors for 0 collections in 0.000003 seconds (updated 0 objects)
[2020.09.10-09.11.54:792][  0]LogContentStreaming: Texture pool size now 1000 MB
[2020.09.10-09.11.54:799][  0]LogSlate: Took 0.000143 seconds to synchronously load lazily loaded font '../../../Engine/Content/Slate/Fonts/Roboto-Regular.ttf' (155K)
[2020.09.10-09.11.54:801][  0]LogSlate: Took 0.000148 seconds to synchronously load lazily loaded font '../../../Engine/Content/Slate/Fonts/Roboto-Bold.ttf' (160K)
[2020.09.10-09.11.54:806][  0]LogSlate: Took 0.000171 seconds to synchronously load lazily loaded font '../../../Engine/Content/Editor/Slate/Fonts/FontAwesome.ttf' (139K)
[2020.09.10-09.11.54:863][  0]LogSlate: Took 0.000126 seconds to synchronously load lazily loaded font '../../../Engine/Content/Slate/Fonts/Roboto-Light.ttf' (167K)
[2020.09.10-09.11.54:879][  1]LogRenderer: Reallocating scene render targets to support 1004x360 Format 10 NumSamples 1 (Frame:1).
[2020.09.10-09.12.00:708][343]Candidate modules for hot reload:
[2020.09.10-09.12.00:708][343]  FIT2097Assignment1
[2020.09.10-09.12.00:708][343]Launching UnrealBuildTool... [D:/UE_4.25/Engine/Binaries/DotNET/UnrealBuildTool.exe  -ModuleWithSuffix=FIT2097Assignment1,5739 FIT2097Assignment1Editor Win64 Development -Project="C:/Users/ROG/Documents/Unreal Projects/FIT2097Assignment1/FIT2097Assignment1.uproject" "C:/Users/ROG/Documents/Unreal Projects/FIT2097Assignment1/FIT2097Assignment1.uproject"  -IgnoreJunk]
[2020.09.10-09.12.00:713][343]Warning: Starting HotReload took  0.0s.
[2020.09.10-09.12.03:721][520]CompilerResultsLog: New page: Compilation - 11 Sep 2020, 5:12:03 am
[2020.09.10-09.12.03:721][520]CompilerResultsLog: Building FIT2097Assignment1Editor...
[2020.09.10-09.12.03:721][520]CompilerResultsLog: Using Visual Studio 2019 14.27.29111 toolchain (C:\Program Files (x86)\Microsoft Visual Studio\2019\Community\VC\Tools\MSVC\14.27.29110) and Windows 10.0.18362.0 SDK (C:\Program Files (x86)\Windows Kits\10).
[2020.09.10-09.12.03:721][520]CompilerResultsLog: Building 4 actions with 12 processes...
[2020.09.10-09.12.03:721][520]CompilerResultsLog:   [1/4] Door.cpp
[2020.09.10-09.12.03:721][520]CompilerResultsLog:   [2/4] UE4Editor-FIT2097Assignment1-5739.lib
[2020.09.10-09.12.03:721][520]CompilerResultsLog:      Creating library C:\Users\ROG\Documents\Unreal Projects\FIT2097Assignment1\Intermediate\Build\Win64\UE4Editor\Development\FIT2097Assignment1\UE4Editor-FIT2097Assignment1-5739.lib and object C:\Users\ROG\Documents\Unreal Projects\FIT2097Assignment1\Intermediate\Build\Win64\UE4Editor\Development\FIT2097Assignment1\UE4Editor-FIT2097Assignment1-5739.exp
[2020.09.10-09.12.03:721][520]CompilerResultsLog:   [3/4] UE4Editor-FIT2097Assignment1-5739.dll
[2020.09.10-09.12.03:721][520]CompilerResultsLog:      Creating library C:\Users\ROG\Documents\Unreal Projects\FIT2097Assignment1\Intermediate\Build\Win64\UE4Editor\Development\FIT2097Assignment1\UE4Editor-FIT2097Assignment1-5739.suppressed.lib and object C:\Users\ROG\Documents\Unreal Projects\FIT2097Assignment1\Intermediate\Build\Win64\UE4Editor\Development\FIT2097Assignment1\UE4Editor-FIT2097Assignment1-5739.suppressed.exp
[2020.09.10-09.12.03:721][520]CompilerResultsLog:   [4/4] FIT2097Assignment1Editor.target
[2020.09.10-09.12.03:721][520]CompilerResultsLog: Total time in Parallel executor: 1.89 seconds
[2020.09.10-09.12.03:721][520]CompilerResultsLog: Total execution time: 2.85 seconds
[2020.09.10-09.12.03:721][520]LogMainFrame: MainFrame: Module compiling took 3.017 seconds
[2020.09.10-09.12.03:731][520]LogHotReload: Re-instancing Door after hot-reload.
[2020.09.10-09.12.03:737][520]LogHotReload: Re-instancing Item after hot-reload.
[2020.09.10-09.12.03:742][520]LogOutputDevice: Warning: 

Script Stack (0 frames):

[2020.09.10-09.12.04:265][520]LogStats: FPlatformStackWalk::StackWalkAndDump -  0.523 s
[2020.09.10-09.12.04:265][520]LogOutputDevice: Error: === Handled ensure: ===
[2020.09.10-09.12.04:265][520]LogOutputDevice: Error: 
[2020.09.10-09.12.04:265][520]LogOutputDevice: Error: Ensure condition failed: this->IsBound() [File:D:\UE_4.25\Engine\Source\Runtime\Core\Public\Delegates/DelegateSignatureImpl.inl] [Line: 1132]
[2020.09.10-09.12.04:265][520]LogOutputDevice: Error: Unable to bind delegate to 'OnOverlapEnd' (function might not be marked as a UFUNCTION or object may be pending kill)
[2020.09.10-09.12.04:265][520]LogOutputDevice: Error: Stack: 
[2020.09.10-09.12.04:265][520]LogOutputDevice: Error: [Callstack] 0x00007ffaa1baf6c8 UE4Editor-FIT2097Assignment1-5739.dll!DispatchCheckVerify<bool,<lambda_f054e0f7de5f767dcac6e5cd323403a8> >() [D:\UE_4.25\Engine\Source\Runtime\Core\Public\Misc\AssertionMacros.h:161]
[2020.09.10-09.12.04:265][520]LogOutputDevice: Error: [Callstack] 0x00007ffaa1ba5df6 UE4Editor-FIT2097Assignment1-5739.dll!APlayerCharacter::APlayerCharacter() [C:\Users\ROG\Documents\Unreal Projects\FIT2097Assignment1\Source\FIT2097Assignment1\PlayerCharacter.cpp:33]
[2020.09.10-09.12.04:265][520]LogOutputDevice: Error: [Callstack] 0x00007ffaaba144be UE4Editor-HotReload.dll!UnknownFunction []
[2020.09.10-09.12.04:265][520]LogOutputDevice: Error: [Callstack] 0x00007ffaaba03d4e UE4Editor-HotReload.dll!UnknownFunction []
[2020.09.10-09.12.04:265][520]LogOutputDevice: Error: [Callstack] 0x00007ffaaba0a995 UE4Editor-HotReload.dll!UnknownFunction []
[2020.09.10-09.12.04:265][520]LogOutputDevice: Error: [Callstack] 0x00007ffaaba16b33 UE4Editor-HotReload.dll!UnknownFunction []
[2020.09.10-09.12.04:265][520]LogOutputDevice: Error: [Callstack] 0x00007ffaaba16e01 UE4Editor-HotReload.dll!UnknownFunction []
[2020.09.10-09.12.04:265][520]LogOutputDevice: Error: [Callstack] 0x00007ffaaba0f836 UE4Editor-HotReload.dll!UnknownFunction []
[2020.09.10-09.12.04:265][520]LogOutputDevice: Error: [Callstack] 0x00007ffaecbdecfd UE4Editor-CoreUObject.dll!UnknownFunction []
[2020.09.10-09.12.04:265][520]LogOutputDevice: Error: [Callstack] 0x00007ffaecf66869 UE4Editor-CoreUObject.dll!UnknownFunction []
[2020.09.10-09.12.04:265][520]LogOutputDevice: Error: [Callstack] 0x00007ffaecf45bf6 UE4Editor-CoreUObject.dll!UnknownFunction []
[2020.09.10-09.12.04:265][520]LogOutputDevice: Error: [Callstack] 0x00007ffaece643d5 UE4Editor-CoreUObject.dll!UnknownFunction []
[2020.09.10-09.12.04:265][520]LogOutputDevice: Error: [Callstack] 0x00007ffac998987a UE4Editor-Core.dll!UnknownFunction []
[2020.09.10-09.12.04:265][520]LogOutputDevice: Error: [Callstack] 0x00007ffac99a9a00 UE4Editor-Core.dll!UnknownFunction []
[2020.09.10-09.12.04:265][520]LogOutputDevice: Error: [Callstack] 0x00007ffac99a8b18 UE4Editor-Core.dll!UnknownFunction []
[2020.09.10-09.12.04:265][520]LogOutputDevice: Error: [Callstack] 0x00007ffaaba0b9b2 UE4Editor-HotReload.dll!UnknownFunction []
[2020.09.10-09.12.04:265][520]LogOutputDevice: Error: [Callstack] 0x00007ffaaba09617 UE4Editor-HotReload.dll!UnknownFunction []
[2020.09.10-09.12.04:265][520]LogOutputDevice: Error: [Callstack] 0x00007ffaaba0a1ad UE4Editor-HotReload.dll!UnknownFunction []
[2020.09.10-09.12.04:265][520]LogOutputDevice: Error: [Callstack] 0x00007ffaaba1c057 UE4Editor-HotReload.dll!UnknownFunction []
[2020.09.10-09.12.04:265][520]LogOutputDevice: Error: [Callstack] 0x00007ffac970d0a9 UE4Editor-Core.dll!UnknownFunction []
[2020.09.10-09.12.04:265][520]LogOutputDevice: Error: [Callstack] 0x00007ff65704a213 UE4Editor.exe!UnknownFunction []
[2020.09.10-09.12.04:265][520]LogOutputDevice: Error: [Callstack] 0x00007ff65705ba7c UE4Editor.exe!UnknownFunction []
[2020.09.10-09.12.04:265][520]LogOutputDevice: Error: [Callstack] 0x00007ff65705bb5a UE4Editor.exe!UnknownFunction []
[2020.09.10-09.12.04:265][520]LogOutputDevice: Error: [Callstack] 0x00007ff65706e31d UE4Editor.exe!UnknownFunction []
[2020.09.10-09.12.04:265][520]LogOutputDevice: Error: [Callstack] 0x00007ff65707145a UE4Editor.exe!UnknownFunction []
[2020.09.10-09.12.04:265][520]LogOutputDevice: Error: [Callstack] 0x00007ffb222a7bd4 KERNEL32.DLL!UnknownFunction []
[2020.09.10-09.12.04:265][520]LogOutputDevice: Error: [Callstack] 0x00007ffb22ccce51 ntdll.dll!UnknownFunction []
[2020.09.10-09.12.04:265][520]LogOutputDevice: Error: 
[2020.09.10-09.12.04:266][520]LogStats:                SubmitErrorReport -  0.000 s
[2020.09.10-09.12.23:819][520]LogStats:                    SendNewReport - 19.553 s
[2020.09.10-09.12.23:819][520]LogStats:             FDebug::EnsureFailed - 20.076 s
[2020.09.10-09.12.23:820][520]LogHotReload: Re-instancing PlayerCharacter after hot-reload.
[2020.09.10-09.12.23:826][520]LogContentBrowser: Native class hierarchy updated for 'FIT2097Assignment1' in 0.0005 seconds. Added 6 classes and 2 folders.
[2020.09.10-09.12.23:828][520]Display: HotReload successful (7 functions remapped  0 scriptstructs remapped)
[2020.09.10-09.12.23:871][520]LogContentBrowser: Native class hierarchy populated in 0.0087 seconds. Added 3433 classes and 823 folders.
[2020.09.10-09.12.23:872][520]Display: HotReload took 23.2s.
[2020.09.10-09.12.26:031][649]LogTemp: Repeating last play command: Selected Viewport
[2020.09.10-09.12.26:044][649]LogPlayLevel: PlayLevel: No blueprints needed recompiling
[2020.09.10-09.12.26:044][649]PIE: New page: PIE session: Minimal_Default (11 Sep 2020, 5:12:26 am)
[2020.09.10-09.12.26:046][649]LogOnline: OSS: Creating online subsystem instance for: NULL
[2020.09.10-09.12.26:046][649]LogOnline: OSS: TryLoadSubsystemAndSetDefault: Loaded subsystem for module [NULL]
[2020.09.10-09.12.26:046][649]LogPlayLevel: Creating play world package: /Game/StarterContent/Maps/UEDPIE_0_Minimal_Default
[2020.09.10-09.12.26:050][649]LogPlayLevel: PIE: StaticDuplicateObject took: (0.003573s)
[2020.09.10-09.12.26:051][649]LogAIModule: Creating AISystem for world Minimal_Default
[2020.09.10-09.12.26:051][649]LogAISub: UAISubsystem::UAISubsystem EnvQueryManager (000001C87CEF7E00), frame # 649
[2020.09.10-09.12.26:051][649]LogAISub: UAISubsystem::UAISubsystem AIPerceptionSystem (000001C85725D580), frame # 649
[2020.09.10-09.12.26:051][649]LogPlayLevel: PIE: World Init took: (0.001036s)
[2020.09.10-09.12.26:051][649]LogPlayLevel: PIE: Created PIE world by copying editor world from /Game/StarterContent/Maps/Minimal_Default.Minimal_Default to /Game/StarterContent/Maps/UEDPIE_0_Minimal_Default.Minimal_Default (0.004746s)
[2020.09.10-09.12.26:061][649]LogUObjectHash: Compacting FUObjectHashTables data took   0.52ms
[2020.09.10-09.12.26:063][649]LogAudioMixer: Display: Audio Mixer Platform Settings:
[2020.09.10-09.12.26:063][649]LogAudioMixer: Display: 	Sample Rate:						  48000
[2020.09.10-09.12.26:063][649]LogAudioMixer: Display: 	Callback Buffer Frame Size Requested: 1024
[2020.09.10-09.12.26:063][649]LogAudioMixer: Display: 	Callback Buffer Frame Size To Use:	  1024
[2020.09.10-09.12.26:063][649]LogAudioMixer: Display: 	Number of buffers to queue:			  2
[2020.09.10-09.12.26:063][649]LogAudioMixer: Display: 	Max Channels (voices):				  32
[2020.09.10-09.12.26:063][649]LogAudioMixer: Display: 	Number of Async Source Workers:		  0
[2020.09.10-09.12.26:063][649]LogAudio: Display: AudioDevice MaxSources: 32
[2020.09.10-09.12.26:063][649]LogAudio: Display: Using built-in audio occlusion.
[2020.09.10-09.12.26:063][649]LogAudioMixer: Display: Initializing audio mixer.
[2020.09.10-09.12.26:074][649]LogAudioMixer: Display: 0: FrontLeft
[2020.09.10-09.12.26:074][649]LogAudioMixer: Display: 1: FrontRight
[2020.09.10-09.12.26:098][649]LogAudioMixer: Display: Using Audio Device 扬声器 (Realtek High Definition Audio)
[2020.09.10-09.12.26:099][649]LogAudioMixer: Display: Initializing Sound Submixes...
[2020.09.10-09.12.26:099][649]LogAudioMixer: Display: Creating Master Submix 'MasterSubmixDefault'
[2020.09.10-09.12.26:099][649]LogAudioMixer: Display: Creating Master Submix 'MasterReverbSubmixDefault'
[2020.09.10-09.12.26:099][649]LogAudioMixer: Display: Creating Master Submix 'MasterEQSubmixDefault'
[2020.09.10-09.12.26:113][649]LogInit: FAudioDevice initialized.
[2020.09.10-09.12.26:121][649]LogLoad: Game class is 'GameModeBase'
[2020.09.10-09.12.26:122][649]LogWorld: Bringing World /Game/StarterContent/Maps/UEDPIE_0_Minimal_Default.Minimal_Default up for play (max tick rate 60) at 2020.09.10-19.12.26
[2020.09.10-09.12.26:123][649]LogWorld: Bringing up level for play took: 0.000875
[2020.09.10-09.12.26:123][649]LogOnline: OSS: Creating online subsystem instance for: :Context_2
[2020.09.10-09.12.26:146][649]LogContentBrowser: Native class hierarchy updated for 'MovieSceneCapture' in 0.0004 seconds. Added 20 classes and 0 folders.
[2020.09.10-09.12.26:147][649]PIE: Server logged in
[2020.09.10-09.12.26:149][649]PIE: Play in editor total start time 0.11 seconds.
[2020.09.10-09.12.28:425][782]LogSlate: Updating window title bar state: overlay mode, drag disabled, window buttons hidden, title bar hidden
[2020.09.10-09.12.28:425][782]LogWorld: BeginTearingDown for /Game/StarterContent/Maps/UEDPIE_0_Minimal_Default
[2020.09.10-09.12.28:425][782]LogWorld: UWorld::CleanupWorld for Minimal_Default, bSessionEnded=true, bCleanupResources=true
[2020.09.10-09.12.28:425][782]LogSlate: InvalidateAllWidgets triggered.  All widgets were invalidated
[2020.09.10-09.12.28:432][782]LogPlayLevel: Display: Shutting down PIE online subsystems
[2020.09.10-09.12.28:432][782]LogSlate: InvalidateAllWidgets triggered.  All widgets were invalidated
[2020.09.10-09.12.28:459][782]LogSlate: Updating window title bar state: overlay mode, drag disabled, window buttons hidden, title bar hidden
[2020.09.10-09.12.28:461][782]LogAISub: UAISubsystem::~UAISubsystem EnvQueryManager (000001C87CEF7E00), frame # 782
[2020.09.10-09.12.28:461][782]LogAISub: UAISubsystem::~UAISubsystem AIPerceptionSystem (000001C85725D580), frame # 782
[2020.09.10-09.12.28:461][782]LogUObjectHash: Compacting FUObjectHashTables data took   0.54ms
[2020.09.10-09.12.28:504][784]LogPlayLevel: Display: Destroying online subsystem :Context_2
[2020.09.10-09.12.30:104][880]LogEditorViewport: Clicking on Actor (LMB): Door (Door1)
[2020.09.10-09.13.24:036][135]Candidate modules for hot reload:
[2020.09.10-09.13.24:036][135]  FIT2097Assignment1
[2020.09.10-09.13.24:036][135]Launching UnrealBuildTool... [D:/UE_4.25/Engine/Binaries/DotNET/UnrealBuildTool.exe  -ModuleWithSuffix=FIT2097Assignment1,8997 FIT2097Assignment1Editor Win64 Development -Project="C:/Users/ROG/Documents/Unreal Projects/FIT2097Assignment1/FIT2097Assignment1.uproject" "C:/Users/ROG/Documents/Unreal Projects/FIT2097Assignment1/FIT2097Assignment1.uproject"  -IgnoreJunk]
[2020.09.10-09.13.24:039][135]Warning: Starting HotReload took  0.0s.
[2020.09.10-09.13.26:489][277]CompilerResultsLog: New page: Compilation - 11 Sep 2020, 5:13:26 am
[2020.09.10-09.13.26:489][277]CompilerResultsLog: Building FIT2097Assignment1Editor...
[2020.09.10-09.13.26:489][277]CompilerResultsLog: Using Visual Studio 2019 14.27.29111 toolchain (C:\Program Files (x86)\Microsoft Visual Studio\2019\Community\VC\Tools\MSVC\14.27.29110) and Windows 10.0.18362.0 SDK (C:\Program Files (x86)\Windows Kits\10).
[2020.09.10-09.13.26:489][277]CompilerResultsLog: Building 4 actions with 12 processes...
[2020.09.10-09.13.26:489][277]CompilerResultsLog:   [1/4] Door.cpp
[2020.09.10-09.13.26:489][277]CompilerResultsLog:   [2/4] UE4Editor-FIT2097Assignment1-8997.lib
[2020.09.10-09.13.26:489][277]CompilerResultsLog:      Creating library C:\Users\ROG\Documents\Unreal Projects\FIT2097Assignment1\Intermediate\Build\Win64\UE4Editor\Development\FIT2097Assignment1\UE4Editor-FIT2097Assignment1-8997.lib and object C:\Users\ROG\Documents\Unreal Projects\FIT2097Assignment1\Intermediate\Build\Win64\UE4Editor\Development\FIT2097Assignment1\UE4Editor-FIT2097Assignment1-8997.exp
[2020.09.10-09.13.26:489][277]CompilerResultsLog:   [3/4] UE4Editor-FIT2097Assignment1-8997.dll
[2020.09.10-09.13.26:489][277]CompilerResultsLog:      Creating library C:\Users\ROG\Documents\Unreal Projects\FIT2097Assignment1\Intermediate\Build\Win64\UE4Editor\Development\FIT2097Assignment1\UE4Editor-FIT2097Assignment1-8997.suppressed.lib and object C:\Users\ROG\Documents\Unreal Projects\FIT2097Assignment1\Intermediate\Build\Win64\UE4Editor\Development\FIT2097Assignment1\UE4Editor-FIT2097Assignment1-8997.suppressed.exp
[2020.09.10-09.13.26:490][277]CompilerResultsLog:   [4/4] FIT2097Assignment1Editor.target
[2020.09.10-09.13.26:490][277]CompilerResultsLog: Total time in Parallel executor: 1.47 seconds
[2020.09.10-09.13.26:490][277]CompilerResultsLog: Total execution time: 2.35 seconds
[2020.09.10-09.13.26:490][277]LogMainFrame: MainFrame: Module compiling took 2.459 seconds
[2020.09.10-09.13.26:499][277]LogHotReload: Re-instancing Door after hot-reload.
[2020.09.10-09.13.26:531][277]LogHotReload: Re-instancing Item after hot-reload.
[2020.09.10-09.13.26:536][277]LogOutputDevice: Warning: 

Script Stack (0 frames):

[2020.09.10-09.13.27:004][277]LogStats: FPlatformStackWalk::StackWalkAndDump -  0.468 s
[2020.09.10-09.13.27:004][277]LogOutputDevice: Error: === Handled ensure: ===
[2020.09.10-09.13.27:004][277]LogOutputDevice: Error: 
[2020.09.10-09.13.27:004][277]LogOutputDevice: Error: Ensure condition failed: this->IsBound() [File:D:\UE_4.25\Engine\Source\Runtime\Core\Public\Delegates/DelegateSignatureImpl.inl] [Line: 1132]
[2020.09.10-09.13.27:004][277]LogOutputDevice: Error: Unable to bind delegate to 'OnOverlapEnd' (function might not be marked as a UFUNCTION or object may be pending kill)
[2020.09.10-09.13.27:004][277]LogOutputDevice: Error: Stack: 
[2020.09.10-09.13.27:004][277]LogOutputDevice: Error: [Callstack] 0x00007ffad879f6c8 UE4Editor-FIT2097Assignment1-8997.dll!DispatchCheckVerify<bool,<lambda_f054e0f7de5f767dcac6e5cd323403a8> >() [D:\UE_4.25\Engine\Source\Runtime\Core\Public\Misc\AssertionMacros.h:161]
[2020.09.10-09.13.27:004][277]LogOutputDevice: Error: [Callstack] 0x00007ffad8795e96 UE4Editor-FIT2097Assignment1-8997.dll!APlayerCharacter::APlayerCharacter() [C:\Users\ROG\Documents\Unreal Projects\FIT2097Assignment1\Source\FIT2097Assignment1\PlayerCharacter.cpp:33]
[2020.09.10-09.13.27:004][277]LogOutputDevice: Error: [Callstack] 0x00007ffaaba144be UE4Editor-HotReload.dll!UnknownFunction []
[2020.09.10-09.13.27:004][277]LogOutputDevice: Error: [Callstack] 0x00007ffaaba03d4e UE4Editor-HotReload.dll!UnknownFunction []
[2020.09.10-09.13.27:004][277]LogOutputDevice: Error: [Callstack] 0x00007ffaaba0a995 UE4Editor-HotReload.dll!UnknownFunction []
[2020.09.10-09.13.27:004][277]LogOutputDevice: Error: [Callstack] 0x00007ffaaba16b33 UE4Editor-HotReload.dll!UnknownFunction []
[2020.09.10-09.13.27:004][277]LogOutputDevice: Error: [Callstack] 0x00007ffaaba16e01 UE4Editor-HotReload.dll!UnknownFunction []
[2020.09.10-09.13.27:004][277]LogOutputDevice: Error: [Callstack] 0x00007ffaaba0f836 UE4Editor-HotReload.dll!UnknownFunction []
[2020.09.10-09.13.27:004][277]LogOutputDevice: Error: [Callstack] 0x00007ffaecbdecfd UE4Editor-CoreUObject.dll!UnknownFunction []
[2020.09.10-09.13.27:004][277]LogOutputDevice: Error: [Callstack] 0x00007ffaecf66869 UE4Editor-CoreUObject.dll!UnknownFunction []
[2020.09.10-09.13.27:004][277]LogOutputDevice: Error: [Callstack] 0x00007ffaecf45bf6 UE4Editor-CoreUObject.dll!UnknownFunction []
[2020.09.10-09.13.27:004][277]LogOutputDevice: Error: [Callstack] 0x00007ffaece643d5 UE4Editor-CoreUObject.dll!UnknownFunction []
[2020.09.10-09.13.27:004][277]LogOutputDevice: Error: [Callstack] 0x00007ffac998987a UE4Editor-Core.dll!UnknownFunction []
[2020.09.10-09.13.27:004][277]LogOutputDevice: Error: [Callstack] 0x00007ffac99a9a00 UE4Editor-Core.dll!UnknownFunction []
[2020.09.10-09.13.27:004][277]LogOutputDevice: Error: [Callstack] 0x00007ffac99a8b18 UE4Editor-Core.dll!UnknownFunction []
[2020.09.10-09.13.27:004][277]LogOutputDevice: Error: [Callstack] 0x00007ffaaba0b9b2 UE4Editor-HotReload.dll!UnknownFunction []
[2020.09.10-09.13.27:004][277]LogOutputDevice: Error: [Callstack] 0x00007ffaaba09617 UE4Editor-HotReload.dll!UnknownFunction []
[2020.09.10-09.13.27:004][277]LogOutputDevice: Error: [Callstack] 0x00007ffaaba0a1ad UE4Editor-HotReload.dll!UnknownFunction []
[2020.09.10-09.13.27:004][277]LogOutputDevice: Error: [Callstack] 0x00007ffaaba1c057 UE4Editor-HotReload.dll!UnknownFunction []
[2020.09.10-09.13.27:004][277]LogOutputDevice: Error: [Callstack] 0x00007ffac970d0a9 UE4Editor-Core.dll!UnknownFunction []
[2020.09.10-09.13.27:004][277]LogOutputDevice: Error: [Callstack] 0x00007ff65704a213 UE4Editor.exe!UnknownFunction []
[2020.09.10-09.13.27:004][277]LogOutputDevice: Error: [Callstack] 0x00007ff65705ba7c UE4Editor.exe!UnknownFunction []
[2020.09.10-09.13.27:004][277]LogOutputDevice: Error: [Callstack] 0x00007ff65705bb5a UE4Editor.exe!UnknownFunction []
[2020.09.10-09.13.27:004][277]LogOutputDevice: Error: [Callstack] 0x00007ff65706e31d UE4Editor.exe!UnknownFunction []
[2020.09.10-09.13.27:004][277]LogOutputDevice: Error: [Callstack] 0x00007ff65707145a UE4Editor.exe!UnknownFunction []
[2020.09.10-09.13.27:004][277]LogOutputDevice: Error: [Callstack] 0x00007ffb222a7bd4 KERNEL32.DLL!UnknownFunction []
[2020.09.10-09.13.27:004][277]LogOutputDevice: Error: [Callstack] 0x00007ffb22ccce51 ntdll.dll!UnknownFunction []
[2020.09.10-09.13.27:004][277]LogOutputDevice: Error: 
[2020.09.10-09.13.27:006][277]LogStats:                SubmitErrorReport -  0.000 s
[2020.09.10-09.13.27:793][277]LogStats:                    SendNewReport -  0.786 s
[2020.09.10-09.13.27:793][277]LogStats:             FDebug::EnsureFailed -  1.256 s
[2020.09.10-09.13.27:793][277]LogHotReload: Re-instancing PlayerCharacter after hot-reload.
[2020.09.10-09.13.27:798][277]LogContentBrowser: Native class hierarchy updated for 'FIT2097Assignment1' in 0.0004 seconds. Added 6 classes and 2 folders.
[2020.09.10-09.13.27:800][277]Display: HotReload successful (7 functions remapped  0 scriptstructs remapped)
[2020.09.10-09.13.27:831][277]LogContentBrowser: Native class hierarchy populated in 0.0080 seconds. Added 3433 classes and 823 folders.
[2020.09.10-09.13.27:831][277]Display: HotReload took  3.8s.
[2020.09.10-09.13.29:708][388]LogTemp: Repeating last play command: Selected Viewport
[2020.09.10-09.13.29:725][388]LogPlayLevel: PlayLevel: No blueprints needed recompiling
[2020.09.10-09.13.29:725][388]PIE: New page: PIE session: Minimal_Default (11 Sep 2020, 5:13:29 am)
[2020.09.10-09.13.29:725][388]LogPlayLevel: Creating play world package: /Game/StarterContent/Maps/UEDPIE_0_Minimal_Default
[2020.09.10-09.13.29:728][388]LogPlayLevel: PIE: StaticDuplicateObject took: (0.003546s)
[2020.09.10-09.13.29:729][388]LogAIModule: Creating AISystem for world Minimal_Default
[2020.09.10-09.13.29:729][388]LogAISub: UAISubsystem::UAISubsystem EnvQueryManager (000001C84FE1DC00), frame # 1388
[2020.09.10-09.13.29:729][388]LogAISub: UAISubsystem::UAISubsystem AIPerceptionSystem (000001C84FA76340), frame # 1388
[2020.09.10-09.13.29:729][388]LogPlayLevel: PIE: World Init took: (0.001005s)
[2020.09.10-09.13.29:730][388]LogPlayLevel: PIE: Created PIE world by copying editor world from /Game/StarterContent/Maps/Minimal_Default.Minimal_Default to /Game/StarterContent/Maps/UEDPIE_0_Minimal_Default.Minimal_Default (0.004678s)
[2020.09.10-09.13.29:740][388]LogUObjectHash: Compacting FUObjectHashTables data took   0.88ms
[2020.09.10-09.13.29:741][388]LogAudioMixer: Display: Audio Mixer Platform Settings:
[2020.09.10-09.13.29:741][388]LogAudioMixer: Display: 	Sample Rate:						  48000
[2020.09.10-09.13.29:741][388]LogAudioMixer: Display: 	Callback Buffer Frame Size Requested: 1024
[2020.09.10-09.13.29:741][388]LogAudioMixer: Display: 	Callback Buffer Frame Size To Use:	  1024
[2020.09.10-09.13.29:741][388]LogAudioMixer: Display: 	Number of buffers to queue:			  2
[2020.09.10-09.13.29:741][388]LogAudioMixer: Display: 	Max Channels (voices):				  32
[2020.09.10-09.13.29:741][388]LogAudioMixer: Display: 	Number of Async Source Workers:		  0
[2020.09.10-09.13.29:741][388]LogAudio: Display: AudioDevice MaxSources: 32
[2020.09.10-09.13.29:742][388]LogAudio: Display: Using built-in audio occlusion.
[2020.09.10-09.13.29:742][388]LogAudioMixer: Display: Initializing audio mixer.
[2020.09.10-09.13.29:753][388]LogAudioMixer: Display: 0: FrontLeft
[2020.09.10-09.13.29:753][388]LogAudioMixer: Display: 1: FrontRight
[2020.09.10-09.13.29:783][388]LogAudioMixer: Display: Using Audio Device 扬声器 (Realtek High Definition Audio)
[2020.09.10-09.13.29:783][388]LogAudioMixer: Display: Initializing Sound Submixes...
[2020.09.10-09.13.29:783][388]LogAudioMixer: Display: Creating Master Submix 'MasterSubmixDefault'
[2020.09.10-09.13.29:783][388]LogAudioMixer: Display: Creating Master Submix 'MasterReverbSubmixDefault'
[2020.09.10-09.13.29:783][388]LogAudioMixer: Display: Creating Master Submix 'MasterEQSubmixDefault'
[2020.09.10-09.13.29:796][388]LogInit: FAudioDevice initialized.
[2020.09.10-09.13.29:805][388]LogLoad: Game class is 'GameModeBase'
[2020.09.10-09.13.29:807][388]LogWorld: Bringing World /Game/StarterContent/Maps/UEDPIE_0_Minimal_Default.Minimal_Default up for play (max tick rate 60) at 2020.09.10-19.13.29
[2020.09.10-09.13.29:807][388]LogWorld: Bringing up level for play took: 0.000788
[2020.09.10-09.13.29:807][388]LogOnline: OSS: Creating online subsystem instance for: :Context_3
[2020.09.10-09.13.29:809][388]PIE: Server logged in
[2020.09.10-09.13.29:810][388]PIE: Play in editor total start time 0.091 seconds.
